{
    "label": "Eidolons (Compañeros Animales)",
    "reference": [],
    "entries": {
        "Anger Phantom Eidolon": {
            "name": "Eidolon fantasma de la ira",
            "description": "<p>Tu eidolon es un alma perdida, ligada al mundo mortal por una ira imperecedera o un rencor amargo. La mayoría de los eidolones fantasma son humanoides con apariencia espectral o ectoplasmática, aunque algunos adoptan formas mucho más extrañas. Tu vínculo con tu eidolon impide que sucumba a la corrupción y la muerte. Juntos, tendréis que decidir si trabajáis con vuestro eidolon para controlar su ira, o canalizáis su furia en poder.</p> <p\n<p><strong>Tradición</strong> Ocultismo</p>\n<p><strong>Traits</strong> eidolon, Etérea, fantasma</p>\n<p><strong>Plano de origen</strong></p> <p>Plano Etéreo</strong>.\n<p><strong>Tamaño</strong> Mediano o Pequeño</p>\n<p><strong>Ataques</strong> sugeridos</strong> puño (contundente), zarcillo (contundente), ataques sin armas con forma de arma</p>\n<p><strong>Berserker enfurecido</strong> Str 18, Dex 14, Con 16, Int 8, Wis 10, Cha 12; +2 CA (+3 tope de Dex)</p>\n<p><strong>Asesino enfurecido</strong> Str 14, Dex 18, Con 16, Int 10, Wis 8, Cha 12; +1 CA (+4 Dex cap)</p> <p><strong>Asesino enfurecido</strong>.\n<p><strong>Habilidades</strong> Intimidación, Ocultismo</p> <p>.\n<p><strong>Sentidos</strong> visión en la oscuridad</p>\n<p><strong>Lenguaje</strong> una lengua común mortal que el eidolon hablaba en vida</p>\n<p><strong>Velocidad</strong> 25 pies</p>\n<p><strong>Habilidades del eidolon</strong> Golpe furioso inicial; Simbiosis frenesí hirviente; Trascendencia aura de cólera</p> <p>Habilidades del eidolon</strong>"
        },
        "Angel Eidolon": {
            "name": "Ángel Eidolon",
            "description": "<p>Tu eidolon es un mensajero celestial, un miembro de la hueste angelical con un vínculo nico contigo, que les permite llevar un mensaje especial al mundo mortal a tu lado. La mayoría de los ángeles eidolones tienen forma humanoide, con alas emplumadas, ojos brillantes, halos o rasgos angelicales similares. Sin embargo, algunos adoptan la forma de sirvientes angelicales más pequeños, como el ángel cassisiano de casco alado. Los dos estáis destinados a desempeñar un papel importante en los planes de los reinos celestiales. Aunque es un verdadero ángel, el vínculo de tu eidolon angélico contigo como mortal les impide lanzar el ritual del mensajero angelical, incluso si de algún modo lo aprenden.</p> <p\n<p><strong>Tradición</strong> divina</p>\n<p><strong>Traits</strong> angelical, celestial, eidolon</p>\n<p><strong>Alineamiento</strong> debe ser bueno, normalmente neutro bueno</p> <p>Alineamiento</strong> debe ser bueno, normalmente neutro bueno</strong>.\n<p><strong>Plano de Origen</strong> Nirvana (si es NG), Elysium (si es CG), o Heaven (si es LG)</p> <p><strong>Cielo</strong>.\n<p><strong>Tamaño</strong> Mediano o Pequeño</p>\n<p><strong>Ataques</strong> sugeridos</strong> puño (contundente), ala (contundente), ataques sin armas con forma de arma</p>\n<p><strong>Vengador Angélico</strong> Str 18, Dex 14, Con 16, Int 8, Wis 12, Cha 10; +2 CA (+3 Dex cap)</p> <p><strong>Vengador Angélico</strong>.\n<p><strong>Emisario Angélico</strong> Str 12, Dex 18, Con 12, Int 10, Wis 12, Cha 14; +1 CA (+4 Dex cap)</p> <p><strong>Emisario Angélico</strong>.\n<p><strong>Habilidades</strong> Diplomacia, Religión</p>\n<p><strong>Sentidos</strong> visión en la oscuridad</p>\n<p><strong>Idioma</strong> Celestial</p>\n<p><strong>Velocidad</strong> 25 pies</p> <p>Velocidad</strong>.\n<p><strong>Habilidades de Eidolon</strong> Golpes iniciales santificados; Aura del viajero de simbiosis; Trascendencia angelical merced</p> <p><strong>Habilidades de Eidolon</strong>"
        },
        "Plant Eidolon": {
            "name": "Planta Eidolon",
            "description": "<p>Tu eidolon es una planta inteligente, formada a partir de los mismos fragmentos incorpóreos de la energía vital de la naturaleza que se convierten en leshys. Los eidolones planta tienden a ser curiosos y adaptables, con temperamentos basados en las partes de la cultura mortal con las que sienten afinidad. A pesar de proceder de la misma fuente, los eidolones vegetales no siempre se parecen a los leshys. Tienen formas muy variadas y pueden parecerse a casi cualquier criatura vegetal existente. Algunos incluso se parecen a criaturas vegetales tan extrañas que son imposibles de identificar.</p> <p\n<p><strong>Tradición</strong> primal</p>\n<p><strong>Trasgos</strong> eidolon, planta</p>\n<p><strong>Plano de Origen</strong> Plano Material</p>\n<p><strong>Tamaño</strong> Mediano</p>\n<p><strong>Ataques sugeridos</strong> enredadera (contundente), rama (contundente), raíz (contundente)</p> <p>Ataques sugeridos</strong>.\n<p><strong>Planta Guardiana</strong> Str 18, Dex 14, Con 16, Int 8, Wis 12, Cha 10; +2 CA (+3 tope Dex)</p>\n<p><strong>Planta rastrera</strong> Str 12, Dex 18, Con 16, Int 8, Wis 14, Cha 10; +1 CA (+4 Dex cap)</p> <p><strong>Planta guardiana</strong>.\n<p><strong>Habilidades</strong> Naturaleza, Supervivencia</p>\n<p><strong>Sentidos</strong> visión con poca luz</p>\n<p><strong>Idioma</strong> Silvano</p>\n<p><strong>Velocidad</strong> 25 pies</p> <p><strong>Velocidad</strong>\n<p><strong>Habilidades de Eidolon</strong> Golpe inicial con zarcillos; Enredaderas que crecen en simbiosis; Campo de trascendencia de raíces</p>"
        },
        "Psychopomp Eidolon": {
            "name": "Psicopompo Eidolon",
            "description": "<p>Tu eidolon es un psicopompo, una criatura cuyo deber jurado es conducir las almas a salvo al más allá y mantener los tribunales de los muertos. Los eidolones psicopompos tienen una gran variedad de apariencias, pero como a menudo trafican con mortales, su forma suele incluir una elaborada máscara. Tú y tu eidolón psicopompo compartís un importante destino juntos, ya esté relacionado directamente con tu propia alma o con una misión que de algún modo protegerá las almas de los demás.</p> <p>Tú y tu eidolón psicopompo compartís un importante destino juntos, ya esté relacionado directamente con tu propia alma o con una misión que de algún modo protegerá las almas de los demás.\n<p><strong>Tradición</strong> divina</p>\n<p><strong>Trasgos</strong> eidolon, monitor, psicopompo</p>\n<p><strong>Alineamiento</strong> debe ser neutro verdadero</p> <p>Alineamiento</strong> debe ser neutro verdadero</strong>.\n<p><strong>Plano de Origen</strong> El Cementerio</p>\n<p><strong>Tamaño</strong> Mediano</p>\n<p><strong>Ataques</strong> sugeridos</strong> pico (perforante), garra (cortante), puño (contundente), mandíbulas (perforantes), ataques sin armas con forma de arma</p>\n<p><strong>Guardián del Alma</strong> Str 18, Dex 14, Con 16, Int 10, Wis 12, Cha 8; +2 CA (+3 Dex cap)</p> <p><strong>Guarda del Alma</strong>.\n<p><strong>Escriba de los Muertos</strong> Str 12, Dex 18, Con 12, Int 14, Wis 12, Cha 10; +1 CA (+4 Dex cap)</p> <p><strong>Escriba de los Muertos</strong>.\n<p><strong>Habilidades</strong> Intimidación, Religión.\n<p><strong>Sentidos</strong> visión en la oscuridad</p>\n<p><strong>Idioma</strong> Requiano</p>\n<p><strong>Velocidad</strong> 25 pies</p> <p><strong>Velocidad</strong>.\n<p><strong>Habilidades de Eidolon</strong> Toque de espíritu inicial; Vigilante oculto de simbiosis; Tomador de espíritu de trascendencia</p>"
        },
        "Construct Eidolon": {
            "name": "Construir Eidolon",
            "description": "<p>Tu eidolon es una construcción mental basada en una forma de pensamiento astral y dotada de presencia física y vida por su conexión contigo, su forma sólo está limitada por tu imaginación. La apariencia y la forma física de tu eidolon varían en función de la visión que compartáis para su construcción, desde mecanismos de relojería hasta muñecas de peluche y todo lo demás, y no es raro que esa apariencia cambie mucho a medida que tu constructo gana evoluciones. Al surgir de una entidad astral, tu constructo no es un sirviente descerebrado, sino un ser totalmente pensante con sus propias ideas, objetivos e incluso emociones. Estas entidades son extremadamente diversas; mientras que muchos eidolones constructo proceden de una poderosa conexión simbiótica con los habitantes astrales, otros tantos surgen de los recuerdos olvidados de antiguos imperios y artesanías a la deriva por el Mar de Plata del Plano Astral.</p> <p\n<p><strong>Tradición</strong> arcana</strong>\n<p><strong>Características</strong> astral, constructo, eidolon</p> <p><strong>Características</strong> astral, constructo, eidolon.\n<p><strong>Plano de Origen</strong> <strong>Plano Astral</strong>\n<p><strong>Tamaño</strong> Mediano</p>\n<p><strong>Ataques</strong> sugeridos</strong> puño (contundente)</p>\n<p><strong>Constructo Guerrero</strong> Str 18, Dex 14, Con 16, Int 12, Wis 10, Cha 8; +2 CA (+3 tope Dex)</p> <p><strong>Constructo Guerrero</strong>.\n<p><strong>Constructo Explorador</strong> Str 14, Dex 18, Con 16, Int 12, Wis 10, Cha 8; +1 CA (+4 Dex cap)</p> <p><strong>Constructo Guerrero</strong>.\n<p><strong>Habilidades</strong> Arcanos, Elaborar</p>\n<p><strong>Sentidos</strong> visión en la oscuridad</p>\n<p><strong>Lenguaje</strong> una lengua común mortal</p>\n<p><strong>Velocidad</strong> 25 pies</p> <p><strong>Velocidad</strong>.\n<p><strong>Habilidades de Eidolon</strong> <strong>Corazón de construcción inicial</strong>; <strong>Evolución reconfigurada por simbiosis</strong>; <strong>Reconfiguración definitiva por trascendencia</strong>."
        },
        "Undead Eidolon": {
            "name": "Eidolon muerto viviente",
            "description": "<p>Tu eidolon es un espíritu no muerto extraído del Plano Etéreo o Plano de Energía Negativa, encarnado, y atado a tu fuerza vital de una forma inusual, potencialmente antitética, que incluso otros invocadores no pueden entender del todo. Los eidolones muertos vivientes adoptan todas las formas imaginables, ya que sus cuerpos se manifiestan a partir de su conexión contigo. Su forma definitiva puede estar influenciada por una amalgama de ecos y recuerdos de su antigua vida antes de convertirse en muertos vivientes, su causa de muerte, sus encuentros en el más allá y partes de tus propias esencias. Juntos, tú y tu eidolon tendréis que explorar los misterios de la vida, la muerte y la no-muerte para comprender lo que vuestro vínculo significa para el futuro de ambos.</p> <p><strong>Tradición</strong>.\n<p><strong>Tradición</strong> divina</p>\n<p><strong>Traits</strong> eidolon, muerto viviente</p>\n<p><strong>Plano de origen</strong> Plano Etéreo o Plano de Energïa Negativa</p> <p><strong>Plano de vida</strong>.\n<p><strong>Tamaño</strong> Mediano o Pequeño</p>\n<p><strong>Ataques</strong> sugeridos</strong> garra (tajante), puño (contundente), mandíbulas (perforante)</p>\n<p><strong>Bruto muerto viviente</strong> Str 18, Dex 14, Con 16, Int 8, Wis 10, Cha 12</p> <p><strong>Bruto muerto viviente</strong>.\n<p><strong>Acechador de muertos vivientes</strong> Str 14, Dex 18, Con 16, Int 8, Wis 12, Cha 10</p> <p><strong>Acechador de muertos vivientes</strong>.\n<p><strong>Habilidades</strong> Intimidación, Religión</p> <p>.\n<p><strong>Sentidos</strong> visión en la oscuridad</p>\n<p><strong>Idioma</strong> Necril</p>\n<p><strong>Velocidad</strong> 25 pies</p> <p><strong>Necril</strong>\n<p><strong>Abilidades</strong> Esencia negativa inicial; Simbiosis drenar la vida; Trascendencia rejuvenecimiento</p>"
        },
        "Dragon Eidolon": {
            "name": "Dragón Eidolon",
            "description": "<p>Debido a que los dragones tienen una fuerte conexión con la magia, sus mentes a menudo pueden dejar un eco flotando en el Plano Astral. Tal entidad es extremadamente poderosa pero incapaz de interactuar con el mundo exterior por sí misma. Los eidolones dragón se manifiestan en las poderosas formas con escamas que tenían en vida; la mayoría adoptan la forma de verdaderos dragones (aunque más pequeños), pero algunos se manifiestan como dragones u otros seres dracónicos. Has forjado una conexión con un eidolón dragón de este tipo y, juntos, buscáis crecer tan poderosos como un antiguo wyrm.</p> <p\n<p><strong>Tradición</strong> arcana</p>\n<p><strong>Traits</strong> astral, dragón, eidolon, y uno más (ver Arma de Aliento más abajo)</p> <p>Traits</strong> astral, dragón, eidolon, y uno más (ver Arma de Aliento más abajo)</p> <p>Traits</strong> arcano.\n<p><strong>Plano de Origen</strong> Plano Astral</p>\n<p><strong>Tamaño</strong> Mediano</p>\n<p><strong>Ataques</strong> sugeridos</strong> garra (cortante), mandíbulas (perforante), cuerno (perforante), cola (contundente), ala (contundente)</p>\n<p><strong>Dragón Astuto</strong> Str 18, Dex 14, Con 16, Int 10, Wis 10, Cha 10; +2 CA (+3 Dex cap)</p> <p>Dragón Astuto</strong>.\n<p><strong>Dragón Astuto</strong> Str 12, Dex 18, Con 12, Int 14, Wis 10, Cha 12; +1 CA (+4 Dex cap)</p> <p><strong>Dragón Astuto</strong>.\n<p><strong>Habilidades</strong> Arcanos, Intimidación</p> <p>.\n<p><strong>Sentidos</strong> visión en la oscuridad</p>\n<p><strong>Idioma</strong> Dracónico</p>\n<p><strong>Velocidad</strong> 25 pies</p> <p><strong>Velocidad</strong>\n<p><strong>Habilidades de eidolon</strong> Arma de aliento inicial; Frenesónico de dracónico de simbiosis; Aliento de wyrm de trascendencia</p>"
        },
        "Devotion Phantom Eidolon": {
            "name": "Devoción Fantasma Eidolon",
            "description": "<p>Tu eidolon es un alma perdida, incapaz de escapar del mundo mortal debido a un fuerte sentido del deber, una devoción imperecedera o la necesidad de completar una tarea importante. La mayoría de los eidolones fantasma son humanoides con apariencia espectral o ectoplasmática, aunque algunos adoptan formas mucho más extrañas. Tu vínculo con tu eidolon evita que sucumban a la corrupción y la no muerte, y juntos, creceréis en fuerza y cumpliréis la devoción de tu fantasma.</p> <p\n<p><strong>Tradición</strong> ocultista</p>\n<p><strong>Traits</strong> eidolon, Etérea, fantasma</p>\n<p><strong>Plano de origen</strong> <strong>Plano Etéreo</strong>.\n<p><strong>Tamaño</strong> Mediano o Pequeño</p>\n<p><strong>Ataques</strong> sugeridos</strong> puño (contundente), zarcillo (contundente), ataques sin armas con forma de arma</p>\n<p><strong>Guardián incondicional</strong> Str 18, Dex 14, Con 16, Int 10, Wis 10, Cha 10; +2 CA (+3 Dex cap)</p> <p><strong>Guardián incondicional</strong>.\n<p><strong>Protector Veloz</strong> Str 14, Dex 18, Con 16, Int 10, Wis 10, Cha 10; +1 CA (+4 Dex cap)</p> <p><strong>Protector de la Fuerza</strong>.\n<p><strong>Habilidades</strong> Medicina, Ocultismo</p>\n<p><strong>Sentidos</strong> visión en la oscuridad</p>\n<p><strong>Lenguaje</strong> una lengua común mortal que el eidolon hablaba en vida</p>\n<p><strong>Velocidad</strong> 25 pies</p>\n<p><strong>Habilidades del eidolon</strong> Represalia obediente inicial; Devoción inquebrantable de simbiosis; Aura de devoción de trascendencia</p> <p>Habilidades del eidolon</strong>."
        },
        "Fey Eidolon": {
            "name": "Eidolon feérico",
            "description": "<p>Tu eidolon es un feérico, un ser caprichoso del misterioso Primer Mundo. Muchos fey parecen similares a los humanoides mortales, con rasgos inusuales como orejas puntiagudas, alas o cuerpos compuestos de elementos naturales, pero toda la variedad de feéricos es infinita, y muchos otros parecen completamente inhumanos. Los feéricos del Primer Mundo nunca mueren de verdad, sino que forman una nueva criatura. Los fey eidolons suelen surgir cuando un convocador ayuda a estabilizar una reforma difícil. Esto significa que tu feérico eidolon probablemente vivió una vida diferente justo antes de conocerte y podría recordar fragmentos de sus antiguos recuerdos. Juntos, podríais tener que desentrañar un recuerdo de la vida pasada de tu eidolon entre los feéricos.</p> <p\n<p><strong>Tradición</strong> primigenia (pero consulta los Hechizos de don feérico más abajo)</p> <p><strong>Hechizos de don feérico</strong>.\n<p><strong>Traits</strong> eidolon, feérico</p>\n<p><strong>Plano de Origen</strong> Primer Mundo</p>\n<p><strong>Tamaño</strong> Pequeño o Mediano</p>\n<p><strong>Ataques</strong> sugeridos</strong> puño (contundente), ala (contundente), ataques con forma de arma</p>\n<p><strong>Fey escaramuzador</strong> Str 14, Dex 18, Con 14, Int 10, Wis 10, Cha 12; +1 CA (+4 Dex cap)</p> <p><strong>Embaucador</strong>.\n<p><strong>Trickster Fey</strong> Str 12, Dex 18, Con 12, Int 12, Wis 8, Cha 16; +1 CA (+4 tope Dex)</p>\n<p><strong>Habilidades</strong> Enga, Naturaleza</p>\n<p><strong>Sentidos</strong> visión con poca luz</p>\n<p><strong>Idioma</strong> Silvano</p>\n<p><strong>Velocidad</strong> 25 pies</p> <p><strong>Velocidad</strong>.\n<p><strong>Habilidades de eidolon</strong> Hechizos iniciales de don feérico; Simbiosis de travesuras feéricas; Trascendencia de argucias feéricas</p>"
        },
        "Demon Eidolon": {
            "name": "Eidolon demoníaco",
            "description": "<p>Tu eidolon es un demonio, nacido del pecado mortal congelado en medio del caos y el maligno del Abismo, que utiliza su vínculo contigo para sembrar el caos a tu lado. Elige un pecado asociado para tu demoníaco. Los eidolones demoníacos tienen apariencias tan variadas como el Abismo infinito. Aunque los demonios son intrínsecamente poco de fiar, tu eidolon demonio ha alcanzado un acuerdo contigo y generalmente lo mantiene, aunque eso no significa que tu eidolon no esté trabajando activamente para hundir tu vida más profundamente en su pecado asociado. Aunque es un verdadero demonio, el vínculo de tu eidolon demoníaco contigo como mortal le impide lanzar el ritual del pacto abisal, incluso si de algún modo lo aprende.</p> <p><strong>Tradición</strong>.\n<p><strong>Tradición</strong> divina</p>\n<p><strong>Traits</strong> demonio, eidolon, fiend</p>\n<p><strong>Alineamiento</strong> debe ser caótico maligno</p>\n<p><strong>Plano de Origen</strong> El Abismo</p>\n<p><strong>Tamaño</strong> Mediano o Pequeño</p>\n<p><strong>Ataques</strong> sugeridos</strong> garra (cortante), mandíbulas (perforante), cuerno (perforante), cola (contundente), tentáculo (contundente), ala (contundente)</p>\n<p><strong>Demonio Demoledor</strong> Str 18, Dex 14, Con 16, Int 10, Wis 8, Cha 12; +2 CA (+3 Dex cap)</p> <p>Demonio Demoledor</strong>.\n<p><strong>Demonio Tentador</strong> Str 12, Dex 18, Con 12, Int 10, Wis 10, Cha 16; +1 CA (+4 tope Dex)</p>\n<p><strong>Habilidades</strong> Intimidación, Religión.\n<p><strong>Sentidos</strong> visión en la oscuridad</p>\n<p><strong>Idioma</strong> Abisal</p>\n<p><strong>Velocidad</strong> 25 pies</p> <p><strong>Velocidad</strong>\n<p><strong>Habilidades del Eidolon</strong> Golpes demoníacos iniciales; Simbiosis visiones de pecado; Trascendencia decreto blasfemo</p>"
        },
        "Beast Eidolon": {
            "name": "Bestia Eidolon",
            "description": "<p>Tu eidolon es una manifestación de la fuerza vital de la naturaleza en forma de una poderosa bestia mágica que a menudo tiene rasgos animales, posiblemente incluso varios de diferentes especies. Puede que hayas aprendido la forma de conectar con la fuerza vital del mundo a través de una filosofía o práctica específica, como las creencias de los invocadores de dioses de Sarkoris, o que hayas formado un vínculo por tu cuenta. Sea como fuere, el vínculo con tu eidolon os permite a ambos crecer en poder e influencia para mantener vuestro hogar a salvo de aquellos que lo expoliarían.</p> <p\n<p><strong>Tradición</strong> primal</p>\n<p><strong>Traits</strong> bestia, eidolon</p> <p><strong>Traits</strong>, bestia, eidolon</strong>.\n<p><strong>Plano de Origen</strong> Plano Material</p>\n<p><strong>Tamaño</strong> Mediano</p>\n<p><strong>Ataques sugeridos</strong> garra (tajante), mandíbulas (perforante), colmillos (perforante), pezuña (contundente), cuerno (perforante)</p> <p><strong>Ataques sugeridos</strong>.\n<p><strong>Bestia Brutal</strong> Str 18, Dex 14, Con 16, Int 8, Wis 12, Cha 10; +2 CA (+3 Dex cap)</p> <p><strong>Bestia Brutal</strong>.\n<p><strong>Bestia de la Flota</strong> Str 14, Dex 18, Con 16, Int 8, Wis 12, Cha 10; +1 CA (+4 Dex cap)</p> <p><strong>Bestia de la Flota</strong>.\n<p><strong>Habilidades</strong> Intimidación, Naturaleza</strong>.\n<p><strong>Sentidos</strong> visión con poca luz</p>\n<p><strong>Idioma</strong> Silvano</p>\n<p><strong>Velocidad</strong> 25 pies</p> <p><strong>Velocidad</strong>.\n<p><strong>Habilidades de Eidolon</strong> Carga inicial de la bestia; Rugido primigenio de la simbiosis; Torbellino de piqueta de la trascendencia</p>"
        }
    },
    "mapping": {
        "description": "system.description.value"
    }
}