{
    "label": "Otros efectos",
    "reference": [],
    "entries": {
        "Effect: -15-foot status penalty to your land Speed": {
            "name": "Effect: -15-foot status penalty to your land Speed",
            "description": "<p><strong>Efecto aplicado por @UUID[Compendium.pf2e.criticaldeck.nI9pM4SeM39SRVaR]{Mazo de Golpe Crítico #41}</strong></p>\n<p>Penalización de situación de 15 pies a tu Velocidad terrestre</p>"
        },
        "Effect: +2 circumstance bonus to AC": {
            "name": "Effect: +2 circumstance bonus to AC",
            "description": "<p><strong>Efecto aplicado por @UUID[Compendium.pf2e.criticaldeck.Wn47ZhXINo7jz8JZ]{Critical Fumble Deck #2}, @UUID[Compendium.pf2e.criticaldeck.YcQEfWxkmpMWXUz4]{Critical Hit Deck #49}</strong></p>\n<p>+2 bonus de circunstancia a CA</p>"
        },
        "Effect: -2 circumstance penalty to ranged attacks": {
            "name": "Effect: -2 circumstance penalty to ranged attacks",
            "description": "<p><strong>Efecto aplicado por @UUID[Compendium.pf2e.criticaldeck.Wn47ZhXINo7jz8JZ]{Mazo Fumble Crítico #2}</strong></p>\n<p>-2 penalización de circunstancia a los ataques a distancia</p>"
        },
        "Effect: +2 status bonus to AC and all saving throws": {
            "name": "Effect: +2 status bonus to AC and all saving throws",
            "description": "<p><strong>Efecto aplicado por @UUID[Compendium.pf2e.criticaldeck.iZYZTEtihsVkbRKR]{Mazo de Golpe Crítico #8}</strong></p>\n<p>Bono de situación de +2 a la CA y a todas las tiradas de salvación</p>"
        },
        "Effect: -2 circumstance penalty to spell attack rolls and spell DC's": {
            "name": "Effect: -2 circumstance penalty to spell attack rolls and spell DC's",
            "description": "<p><strong>Efecto aplicado por @UUID[Compendium.pf2e.criticaldeck.NNfsKAHcKvTuyha4]{Mazo Fumble Crítico #36}</strong></p>\n<p>-2 penalizador de circunstancia a las tiradas de ataque de hechizos y a las DC de hechizos</p>"
        },
        "Effect: Aquatic Combat": {
            "name": "Effect: Aquatic Combat",
            "description": "<p>Usa estas reglas para combates en el agua o bajo el agua:</p>\n<ul>\n<li>Eres @UUID[Compendium.pf2e.conditionitems.AJh5ex99aV6VTggg]{Piesplanos} a menos que tengas Velocidad de Nadar.</li>\n<li>Ganas resistencia 5 al ácido y al fuego.</li> <li>Ganas resistencia 5 al ácido y al fuego.\n<li>Tienes un penalizador -2 de circunstancia a los ataques cuerpo a cuerpo cortantes o contundentes que atraviesan el agua.</li> <li>Tienes un penalizador -2 de circunstancia a los ataques cuerpo a cuerpo cortantes o contundentes que atraviesan el agua.\n<li>Los ataques a distancia que infligen daño contundente o cortante fallan automáticamente si el atacante o el objetivo están bajo el agua, y los ataques a distancia perforantes realizados por una criatura submarina o contra un objetivo submarino tienen sus incrementos de rango reducidos a la mitad.</li> <li>Los ataques a distancia que infligen daño contundente o cortante fallan automáticamente si el atacante o el objetivo están bajo el agua, y los ataques a distancia perforantes realizados por una criatura submarina o contra un objetivo submarino tienen sus incrementos de rango reducidos a la mitad.\n<li>No puedes lanzar hechizos de fuego ni usar acciones con el rasgo fuego bajo el agua.</li>\n<li>A discreción del GM, algunas acciones basadas en tierra podrían no funcionar bajo el agua o mientras se flota.</li>\n</ul>"
        },
        "Effect: -2 circumstance penalty to checks and saving throws until healed": {
            "name": "Effect: -2 circumstance penalty to checks and saving throws until healed",
            "description": "<p><strong>Efecto aplicado por @UUID[Compendium.pf2e.criticaldeck.IvDJkDpe3JxMHaj1]{Mazo de Fumble Crítico #28}</strong></p>\n<p>-2 de penalización de circunstancia a los chequeos y tiradas de salvación hasta que sea curado</p>"
        },
        "Effect: Mounted": {
            "name": "Effect: Mounted",
            "description": "<p>Tienes un penalizador -2 de circunstancia a las salvaciones de Reflejos mientras estás montado.</p>"
        },
        "Effect: -10-foot circumstance penalty to all Speeds": {
            "name": "Effect: -10-foot circumstance penalty to all Speeds",
            "description": "<p><strong>Efecto aplicado por @UUID[Compendium.pf2e.criticaldeck.dP4Zy3ILcjWRx6ZO]{Mazo de Golpe Crítico 45}###</strong></p>\n<p>Penalización de circunstancia de 10 pies a todas las Velocidades</p>"
        },
        "Effect: Dazzled until end of your next turn": {
            "name": "Effect: Dazzled until end of your next turn",
            "description": "<p><strong>Efecto aplicado por @UUID[Compendium.pf2e.criticaldeck.mwz1Ukw9laGyRocF]{Critical Fumble Deck 51}###, @UUID[Compendium.pf2e.criticaldeck.dvL063pJYJpCMsA6]{Critical Fumble Deck #52}</strong></p> <p>Efecto aplicado por @UUID[Compendium.pf2e.criticaldeck.dvL063pJYJpCMsA6]{Critical Fumble Deck 52}##</strong></p> <p>\n<p>Estás @UUID[Compendium.pf2e.conditionitems.TkIyaNPgTZFBCCuh]{Dazzled} hasta el final de tu siguiente turno.</p>"
        },
        "Effect: +4 circumstance bonus to AC against your ranged attacks": {
            "name": "Effect: +4 circumstance bonus to AC against your ranged attacks",
            "description": "<p><strong>Efecto aplicado por @UUID[Compendium.pf2e.criticaldeck.4MkOtc3bBYsBGF97]{Critical Fumble Deck #6}</strong></p>\n<p>Cubrir profiere +4 bonificador de circunstancia a la CA contra tus ataques a distancia</p>"
        },
        "Effect: Scouting (Incredible Scout)": {
            "name": "Effect: Scouting (Incredible Scout)",
            "description": "<p>Cuando utilizas la actividad de exploración Explorar, concedes a tus aliados un bonificador +2 por circunstancia a sus tiradas de iniciativa en lugar de un bonificador +1 por circunstancia</p>"
        },
        "Effect: Deafened until end of your next turn": {
            "name": "Effect: Deafened until end of your next turn",
            "description": "<p><strong>Efecto aplicado por @UUID[Compendium.pf2e.criticaldeck.mcniWnifXwXkZocv]{Mazo Fumble Crítico 41}###</strong></p>\n<p data-pm-slice=\"1 1 [&quot;section&quot;,{&quot;_preserve&quot;:{&quot;class&quot;:&quot;fumble-deck&quot;}},&quot;blockquote&quot;,{&quot;_preserve&quot;:{}}]\">Estás @UUID[Compendium.pf2e.conditionitems.9PR9y0bi4JPKnHPR]{Sordo} hasta el final de tu siguiente turno.</p>"
        },
        "Effect: Cover": {
            "name": "Effect: Cover",
            "description": "<p>Cuando estás detrás de un obstáculo que podría bloquear armas, protegerte de explosiones y dificultar tu detección, estás a cubierto. La cobertura estándar te proporciona un bonificador +2 de circunstancia a la CA, a las salvaciones de Reflejos contra efectos de área y a los chequeos de Sigilo para Esconderse, Movimiento furtivo o evitar ser detectado. Puedes aumentarlo a Ponerse a cubierto mayor utilizando la acción básica Ponerse a cubierto, aumentando el bonificador de circunstancia a +4. Si la cobertura es especialmente ligera, normalmente cuando la proporciona una criatura, tienes cobertura menor, que otorga un bonificador +1 a la CA. Una criatura con cobertura estándar o cobertura mayor puede hacer un intento de usar Sigilo para Esconderse, pero una cobertura menor no es suficiente.</p> <p><strong>Cubrirse</strong>."
        },
        "Effect: Aid": {
            "name": "Effect: Aid",
            "description": "<p>Ganas un bonificador de circunstancia al chequeo ayudado basado en el resultado del chequeo de Prestar ayuda de tu aliado.</p>"
        },
        "Effect: -1 circumstance penalty to attack rolls until you score a critical hit": {
            "name": "Effect: -1 circumstance penalty to attack rolls until you score a critical hit",
            "description": "<p><strong>Efecto aplicado por @UUID[Compendium.pf2e.criticaldeck.kjoBsS79JcjUUPnr]{Mazo Fumble Crítico #38}, @UUID[Compendium.pf2e.criticaldeck.qD8KoshDJsayGbCB]{Mazo Fumble Crítico 40}####, @UUID[Compendium.pf2e.criticaldeck.mcniWnifXwXkZocv]{Critical Fumble Deck 41}##, @UUID[Compendium.pf2e.criticaldeck.8D8NPBNMxQftBmyd]{Critical Fumble Deck #46}</strong></p>\n<p>-1 penalización de circunstancia a las tiradas de ataque hasta que consigas un golpe crítico</p>"
        },
        "Effect: -10-foot status penalty to your land Speed": {
            "name": "Effect: -10-foot status penalty to your land Speed",
            "description": "<p><strong>Efecto aplicado por @UUID[Compendium.pf2e.criticaldeck.maXudTqcDiAj86Ym]{Mazo de Golpe Crítico #6}, @UUID[Compendium.pf2e.criticaldeck.A0gsgMjgDpkOXtYp]{Mazo de Golpe Crítico #12}, @UUID[Compendium.pf2e.criticaldeck.wHwwHq9RcOUvwFeB]{Mazo de Golpe Crítico 22}##, @UUID[Compendium.pf2e.criticaldeck.wCsoyffDxSWQ2c8o]{Mazo de Golpe Crítico 46}##</strong></p>\n<p>Penalización por situación de 10 pies a tu Velocidad terrestre</p>"
        },
        "Effect: Follow The Expert": {
            "name": "Effect: Follow The Expert",
            "description": ""
        },
        "Effect: -2 circumstance penalty to attack rolls until healed": {
            "name": "Effect: -2 circumstance penalty to attack rolls until healed",
            "description": "<p><strong>Efecto aplicado por @UUID[Compendium.pf2e.criticaldeck.LY6T2YgrSoI79BDR]{Mazo Fumble Crítico #8}</strong></p>\n<p>-2 de penalización de circunstancia a las tiradas de ataque hasta que sea curado</p>"
        },
        "Effect: Adverse Subsist Situation": {
            "name": "Effect: Adverse Subsist Situation",
            "description": "<p>Atrajiste problemas, comiste algo que no debías o empeoraste tu situación de alguna otra forma. Tienes un penalizador -2 de circunstancia a los chequeos de Subsistir durante 1 semana. No has encontrado nada de comida; si no tienes nada almacenado, corres peligro de morir de hambre o de sed si sigues fallando.</p> <p><p>Estás en peligro de morir de hambre o de sed si sigues fallando.</p> <p>Estás en peligro de morir de hambre o de sed si sigues fallando."
        },
        "Effect: +2 circumstance bonus to attack rolls": {
            "name": "Effect: +2 circumstance bonus to attack rolls",
            "description": "<p><strong>Efecto aplicado por @UUID[Compendium.pf2e.criticaldeck.bzIzGjyNUc52lhCS]{Mazo de Golpe Crítico #4}, @UUID[Compendium.pf2e.criticaldeck.pjR0QGXE58oWS8uU]{Mazo de Golpe Crítico #7}, @UUID[Compendium.pf2e.criticaldeck.gdYlgrtfGK8mAoXK]{Mazo de Golpe Crítico 9}##</strong></p>.\n<p>+2 bonificador de circunstancia a las tiradas de ataque</p>"
        },
        "Effect: +2 status bonus to saving throws against spells for 1 min": {
            "name": "Effect: +2 status bonus to saving throws against spells for 1 min",
            "description": "<p><strong>Efecto aplicado por @UUID[Compendium.pf2e.criticaldeck.yBE9e9l5KW7SdHZH]{Critical Fumble Deck #31}</strong></p>\n<p>Bono de situación +2 a las tiradas de salvación contra hechizos durante 1 min</p>"
        },
        "Effect: Resistance 5 to all damage": {
            "name": "Effect: Resistance 5 to all damage",
            "description": "<p><strong>Efecto aplicado por @UUID[Compendium.pf2e.criticaldeck.TYTNFtVvFqFBM8oy]{Mazo Fumble Crítico #43}</strong></p>\n<p>Resistencia 5 a todo el daño</p>"
        },
        "Effect: -5-foot status penalty to your land Speed": {
            "name": "Effect: -5-foot status penalty to your land Speed",
            "description": "<p><strong>Efecto aplicado por @UUID[Compendium.pf2e.criticaldeck.maXudTqcDiAj86Ym]{Mazo de Golpe Crítico #6}, @UUID[Compendium.pf2e.criticaldeck.2CCPMTk5DlZslpOp]{Mazo de Golpe Crítico 18}###, @UUID[Compendium.pf2e.criticaldeck.QR3e1uCNURvxDzbV]{Mazo de Golpe Crítico 50}##</strong></p> <p>\n<p>Penalización de situación de 5 pies a tu Velocidad terrestre</p>"
        },
        "Effect: Flat-Footed until end of your next turn": {
            "name": "Effect: Flat-Footed until end of your next turn",
            "description": "<p><strong>Efecto aplicado por @UUID[Compendium.pf2e.criticaldeck.IrUeMJoKEYUSJKs1]{Mazo Fumble Crítico #19}, @UUID[Compendium.pf2e.criticaldeck.gWa7wGUfUvYoIK8z]{Mazo Fumble Crítico 20}###, @UUID[Compendium.pf2e.criticaldeck.I5omhoK6rqfCZiUZ]{Critical Fumble Deck 21}##, @UUID[Compendium.pf2e.criticaldeck.Ps9VYxI2zJPG6PEV]{Critical Fumble Deck 22}##, @UUID[Compendium.pf2e.criticaldeck.qD8KoshDJsayGbCB]{{Critical Fumble Deck 40}###</strong></p>\n<p>Estás @UUID[Compendium.pf2e.conditionitems.AJh5ex99aV6VTggg]{Piesplanos}# hasta el final de tu siguiente turno.</p>"
        },
        "Effect: +1 circumstance bonus to attack rolls for 3 rounds": {
            "name": "Effect: +1 circumstance bonus to attack rolls for 3 rounds",
            "description": "<p><strong>Efecto aplicado por @UUID[Compendium.pf2e.criticaldeck.TbXmAqEzgW1nZV2r]{Mazo de Fumble Crítico #49}</strong></p>\n<p>+1 bonificador de circunstancia a las tiradas de ataque durante 3 asaltos pero tienes los pies planos.</p>"
        },
        "Effect: -2 circumstance penalty to attack rolls with this weapon": {
            "name": "Effect: -2 circumstance penalty to attack rolls with this weapon",
            "description": "<p><strong>Efecto aplicado por @UUID[Compendium.pf2e.criticaldeck.EP333dUdoJ8xdkzq]{Mazo de Fumble Crítico #5}, @UUID[Compendium.pf2e.criticaldeck.YRY6c3WdBEuKiOCv]{Mazo de Fumble Crítico #42}</strong></p>\n<p>2 penalizadores de circunstancia a las tiradas de ataque con esta arma</p>"
        },
        "Effect: -2 circumstance penalty to attack rolls": {
            "name": "Effect: -2 circumstance penalty to attack rolls",
            "description": "<p><strong>Efecto aplicado por @UUID[Compendium.pf2e.criticaldeck.wga13mR4vo73tbTY]{Critical Fumble Deck #10}#, @UUID[Compendium.pf2e.criticaldeck.xsBlA35rvfHSzJe4]{Mazo Fumble Crítico 15}##, @UUID[Compendium.pf2e.criticaldeck.1urnmEt4sn4ATDRL]{Mazo Golpe Crítico #29}</strong></p> <p>\n<p>-2 de penalización de circunstancia a las tiradas de ataque</p>"
        },
        "Effect: Scouting": {
            "name": "Effect: Scouting",
            "description": ""
        },
        "Effect: -2 circumstance penalty to attack rolls made with this attack until healed": {
            "name": "Effect: -2 circumstance penalty to attack rolls made with this attack until healed",
            "description": "<p><strong>Efecto aplicado por @UUID[Compendium.pf2e.criticaldeck.HERWPcFlzK2FTPLJ]{Mazo Fumble Crítico #47}</strong></p>\n<p>-2 de penalización de circunstancia a las tiradas de ataque realizadas con este ataque hasta que se cure</p>"
        },
        "Effect: +2 status bonus to attack rolls": {
            "name": "Effect: +2 status bonus to attack rolls",
            "description": "<p><strong>Efecto aplicado por @UUID[Compendium.pf2e.criticaldeck.wcqXFhggTcAutBk6]{Mazo Fumble Crítico #29}</strong></p>\n<p>+2 bonus de situación a las tiradas de ataque</p>"
        },
        "Effect: -10-foot circumstance penalty to your land Speed": {
            "name": "Effect: -10-foot circumstance penalty to your land Speed",
            "description": "<p><strong>Efecto aplicado por @UUID[Compendium.pf2e.criticaldeck.qD4ybNUceFacSJGu]{Critical Fumble Deck #3}#, @UUID[Compendium.pf2e.criticaldeck.DpY6k60UrpvKgjx2]{Mazo Fumble Crítico #4}, @UUID[Compendium.pf2e.criticaldeck.99BxUbTtFlyPWkq5]{Mazo Fumble Crítico #7}</strong></p>\n<p>Penalización de circunstancia de 10 pies a tu Velocidad terrestre</p>"
        },
        "Effect: -5-foot circumstance penalty to your land Speed": {
            "name": "Effect: -5-foot circumstance penalty to your land Speed",
            "description": "<p><strong>Efecto aplicado por el Mazo de Golpe Crítico/Fumble</strong></p> <p>.\n<p>Penalización de 5 pies de circunstancia a tu Velocidad terrestre</p> <p>."
        }
    },
    "mapping": {
        "description": "system.description.value"
    }
}