{
    "label": "Beneficios (Compañeros Animales)",
    "reference": [],
    "entries": {
        "Badger Support Benefit": {
            "name": "Badger Support Benefit",
            "description": "<p>Tu tejón excava alrededor de la posición de tu enemigo, interfiriendo en su pisada. Hasta el inicio de tu próximo turno, si golpeas e infliges daño a una criatura a la que tu tejón amenaza, el objetivo no puede usar una acción de Paso (a menos que pueda Pisar terreno difícil) hasta que se mueva de su posición actual.</p> <p>Tu tejón cava alrededor de la posición de tu enemigo, interfiriendo en su pisada."
        },
        "Legchair Support Benefit": {
            "name": "Legchair Support Benefit",
            "description": "<p>Tu silla de piernas mueve sus extremidades en el camino de los ataques enemigos. Obtienes @Compendium[pf2e.equipment-effects.lKkQvMzNG55Yhyef]{Lesser Cover} de tu silla de piernas contra todos los ataques, no sólo aquellos en los que la silla de piernas se interpondría.</p> <p>"
        },
        "Undead Bird of Prey Support Benefit": {
            "name": "Undead Bird of Prey Support Benefit",
            "description": "<p>El pájaro aletea y desequilibra a tu enemigo. Hasta el inicio de tu siguiente turno, cuando dañas a una criatura en el alcance del ave con un Golpe, esa criatura se vuelve @Compendium[pf2e.conditionitems.Clumsy]{Torpe 1}## hasta el final de tu siguiente turno.</p>"
        },
        "Camel Support benefit": {
            "name": "Camel Support benefit",
            "description": "<p>El camello realiza un ataque a distancia para escupir un largo hilo de saliva a un enemigo en un radio de 3 metros. Si acierta, el enemigo queda @Compendium[pf2e.conditionitems.Dazzled]{Dazzled}# durante 1 asalto.</p> <p>"
        },
        "Monitor Lizard Support Benefit": {
            "name": "Monitor Lizard Support Benefit",
            "description": "<p>El lagarto monitor distrae a un oponente adyacente con chasquidos de mandíbulas y movimientos rápidos. Hasta el inicio de tu siguiente turno, si tu Golpe daña a un enemigo, cada vez que el enemigo intente una acción con el rasgo manipular hasta el final de tu siguiente turno, debe intentar un <span data-pf2-check=\"plano\" data-pf2-traits=\"\" data-pf2-label=\"Monitor\" data-pf2-dc=\"5\" data-pf2-show-dc=\"propietario\">Chequeo plano</span>. En caso de fallo, la acción queda perturbada.</p> <p><strong>Control plano</strong>."
        },
        "Vampiric Animal Support Benefit": {
            "name": "Vampiric Animal Support Benefit",
            "description": "<p>Cuando tu animal vampírico siente la sangre desgarra a tus enemigos. Hasta el inicio de tu siguiente turno, tus Golpes que dañen a una criatura en el alcance de tu animal vampírico también infligen [[/r {1d6}[persistente,sangrado]]]{1d6} @Compendium[pf2e.conditionitems.Persistent Damage]{Persistent Bleed Damage}. Si tu animal vampírico es ágil o salvaje, el daño persistente por hemorragia aumenta a [[/r 2d6[persistente,hemorragia]]]{2d6}.</p> <p>"
        },
        "Capybara Support Benefit": {
            "name": "Capybara Support Benefit",
            "description": "<p>Tu capibara te ayuda en la batalla. Ganas un bonificador +1 de circunstancia a tu próxima tirada de ataque para Golpear a un enemigo que esté dentro del alcance de tu capibara. El bonificador dura hasta la primera vez que lo usas o hasta el comienzo de tu siguiente turno, lo que ocurra primero.</p> <p>"
        },
        "Triceratops Support Benefit": {
            "name": "Triceratops Support Benefit",
            "description": "<p>Tu triceratops cornea @Compendium[pf2e.conditionitems.Prone]{Prone}# objetivos a su paso. Hasta el inicio de tu siguiente turno, tus Golpes que dañen a una criatura boca abajo en el alcance de tu triceratops también infligen [[/r {1d8}[persistente,sangrado]]]{1d8} @Compendium[pf2e.conditionitems.Persistent Damage]{Daño persistente por sangrado}. Si tu triceratops es ágil o salvaje, el daño persistente por sangrado aumenta a [[/r 2d8]]{2d8}.</p> <p>"
        },
        "Bear Support Benefit": {
            "name": "Bear Support Benefit",
            "description": "<p>Tu oso piquetea a tus enemigos cuando elaboras una apertura. Hasta el comienzo de tu siguiente turno, cada vez que golpees a una criatura en el alcance del oso con un Golpe, la criatura recibe [[/r 1d8 # daño cortante]]{1d8 daño cortante} del oso. Si tu oso es ágil o salvaje, el daño cortante aumenta a [[/r 2d8]]{2d8}.</p> <p>"
        },
        "Cat Support Benefit": {
            "name": "Cat Support Benefit",
            "description": "<p>Tu gato desequilibra a tus enemigos cuando elaboras una apertura. Hasta el comienzo de tu siguiente turno, tus Golpes que infligen daño a una criatura dentro del alcance de tu gato hacen que el objetivo @Compendium[pf2e.conditionitems.Flat-Footed]{Piesplanos}# hasta el final de tu siguiente turno.</p>"
        },
        "Boar Support Benefit": {
            "name": "Boar Support Benefit",
            "description": "<p>Tu jabalí cornea a tus enemigos. Hasta el inicio de tu siguiente turno, tus Golpes que dañen a una criatura en el alcance de tu jabalí también infligen [[/r 1d6 # daño persistente por sangrado]]{1d6} @Compendium[pf2e.conditionitems.lDVqvLKA6eF3Df60]{Persistent Bleed Damage}. Si tu jabalí es ágil o salvaje, el daño persistente por sangrado aumenta a [[/r 2d6]]{2d6}.</p> <p>"
        },
        "Vulture Support Benefit": {
            "name": "Vulture Support Benefit",
            "description": "<p>El buitre tiene arcadas y vomita sobre un enemigo en un radio de 3 metros. Hasta el inicio de tu siguiente turno, si impactas e infliges daño al objetivo, éste debe tener éxito en una salvación de Fortaleza o queda @Compendium[pf2e.conditionitems.Sickened]{Enfermo 1}# (@Compendium[pf2e.conditionitems.Sickened]{Enfermo 2}### en un fallo crítico). La DC de la salvación de Fortaleza es 12 (o 14, si el buitre es un animal de compañía especializado) + tu nivel + el modificador de Constitución del buitre.</p> <p>"
        },
        "Zombie Carrion Bird Support Benefit": {
            "name": "Zombie Carrion Bird Support Benefit",
            "description": "<p>El zombi emite un aura de putrefacción que hace que las heridas supuren. Hasta el comienzo de tu siguiente turno, cada vez que golpees e inflijas daño a una criatura que esté a 3 metros del ave carroñera zombi, la criatura recibe [[/r 1d6]] de daño adicional mientras la herida supura. Si tu ave carroñera es ágil o salvaje, el daño aumenta a [[/r 2d6]]. Este es un efecto de enfermedad y nigromancia.</p> <p>"
        },
        "Dromaeosaur Support Benefit": {
            "name": "Dromaeosaur Support Benefit",
            "description": "<p>Tu raptor se lanza constantemente a una posición de flanqueo. Hasta el comienzo de tu siguiente turno, cuenta como si estuviera en su espacio o en un espacio vacío de tu elección en un radio de 3 metros al determinar si tú y tu compañero estáis flanqueando; puedes elegir un espacio diferente para cada uno de tus ataques.</p>"
        },
        "Ghost Support Benefit": {
            "name": "Ghost Support Benefit",
            "description": "<p>Tu fantasma espanta y asusta a tus enemigos mientras los atacas. Hasta el inicio de tu siguiente turno, si golpeas e infliges daño a una criatura en el alcance de tu fantasma, la criatura se convierte en @Compendium[pf2e.conditionitems.Frightened]{Frightened 1}#.</p>"
        },
        "Elephant Support Benefit": {
            "name": "Elephant Support Benefit",
            "description": "<p>Tu elefante trompetea ruidosamente y amenaza a tu enemigo. La primera criatura al alcance de tu elefante a la que golpees e inflijas daño antes del inicio de tu siguiente turno tiene dificultades para oír ya que sus oídos zumban por el ruido, recibiendo una penalización de situación de -4 a los chequeos de Percepción puramente auditivos hasta el final de tu siguiente turno.</p> <p>"
        },
        "Cave Pterosaur Support Benefit": {
            "name": "Cave Pterosaur Support Benefit",
            "description": "<p>Tu pterosaurio expande sus alas y hace movimientos de aleteo de distracción. Cualquier criatura que obtuviera cobertura menor del pterosaurio gana cobertura estándar en su lugar.</p> <p"
        },
        "Shark Support Benefit": {
            "name": "Shark Support Benefit",
            "description": "<p>Cuando tu tiburón siente la sangre, desgarra a tus enemigos. Hasta el inicio de tu siguiente turno, cada vez que golpees a una criatura al alcance del tiburón con un Golpe e inflijas daño cortante o perforante, la criatura recibe [[/r 1d8 # daño cortante]]{1d8 de daño cortante} del tiburón. Si tu tiburón es ágil o salvaje, el daño cortante aumenta a [[/r 2d8 # daño cortante]]{2d8}.</p> <p>"
        },
        "Terror Bird Support Benefit": {
            "name": "Terror Bird Support Benefit",
            "description": "<p>Tu pájaro del terror chilla a tus enemigos cuando elaboras una apertura. Hasta el inicio de tu siguiente turno, tus Golpes que infligen daño a una criatura dentro del alcance de tu pájaro del terror hacen que el objetivo @Compendium[pf2e.conditionitems.Flat-Footed]{Flat-Footed}# hasta el inicio de tu siguiente turno.</p>"
        },
        "Cave Gecko Support Benefit": {
            "name": "Cave Gecko Support Benefit",
            "description": "<p>Tu geco de las cavernas te ayuda a mantenerte en pie, apoyándose en ti y apuntalándote mientras maniobras a tu oponente. Hasta el final de tu siguiente turno, siempre que estés adyacente a tu salamanquesa de las cavernas, si haces un intento de Desarmar, Empujar o Derribar a un oponente y obtienes un fallo crítico, obtienes un fallo en su lugar.</p> <p>"
        },
        "Scorpion Support Benefit": {
            "name": "Scorpion Support Benefit",
            "description": "<p>Tu escorpión gotea veneno de su aguijón cuando elaboras una Apertura. Hasta el inicio de tu siguiente turno, tus Golpes que dañen a una criatura en los confines de tu escorpión también infligen [[/r 1d6 # daño persistente de veneno]]{1d6}. @Compendium[pf2e.conditionitems.lDVqvLKA6eF3Df60]{Persistent poison Damage}. Si tu escorpión es ágil o Salvajismo, el daño persistente de veneno aumenta a [[/r 2d6 #Daño persistente de veneno]]{2d6}.</p> <p>"
        },
        "Water Wraith Support Benefit": {
            "name": "Water Wraith Support Benefit",
            "description": "<p>Tu espectro de agua sisea y cambia de color rápidamente en un choque iridiscente, abrumando a tus enemigos en una avalancha de matices y tonalidades. Hasta el inicio de tu siguiente turno, cada vez que golpeas a una criatura dentro del alcance de tu espectro de agua, la criatura queda @Compendium[pf2e.conditionitems.Dazzled]{Dazzled}## durante 1 asalto.</p>"
        },
        "Pangolin Support Benefit": {
            "name": "Pangolin Support Benefit",
            "description": "<p>Tu pangolín desgarra a tus enemigos con sus placas dentadas. Hasta el inicio de tu siguiente turno, tus Golpes que dañen a una criatura en el alcance de tu pangolín también infligen [[/r {1d6}[persistente,sangrado]]]{1d6}. @Compendium[pf2e.conditionitems.Persistent Damage]{Daño persistente por sangrado}. Si tu pangolín es ágil o salvaje, el daño persistente por hemorragia aumenta a [[/r {2d6}[persistente,hemorragia]]]{2d6}.</p> <p>"
        },
        "Tyrannosaurus Support Benefit": {
            "name": "Tyrannosaurus Support Benefit",
            "description": "<p>Tu tiranosaurio ruge y hace una exhibición temible mientras atacas, sobresaltando a tus enemigos. Hasta el inicio de tu siguiente turno, si golpeas e infliges daño a una criatura dentro del alcance de tu tiranosaurio, la criatura queda @Compendium[pf2e.conditionitems.Frightened]{Frightened 1}#.</p>"
        },
        "Skeletal Servant Support Benefit": {
            "name": "Skeletal Servant Support Benefit",
            "description": "<p>Tu siervo esquelético clava huesos a tus enemigos para distraerlos mientras atacas. Hasta el inicio de tu siguiente turno, cuando un Golpe que realices impacte e inflija daño a una criatura dentro del alcance de tu siervo esquelético, ese objetivo pasa a ser @Compendium[pf2e.conditionitems.AJh5ex99aV6VTggg]{Piesplanos}# hasta el final de tu siguiente turno.</p>"
        },
        "Wolf Support Benefit": {
            "name": "Wolf Support Benefit",
            "description": "<p>Tu lobo desgarra tendones con cada Apertura. Hasta el comienzo de tu siguiente turno, tus Golpes que dañen a criaturas a las que tu lobo amenaza dan al objetivo una situación de penalización de 1 pie a sus Velocidades durante 1 minuto (&ndash;10 con un éxito crítico).</p> <p>"
        },
        "Zombie Support Benefit": {
            "name": "Zombie Support Benefit",
            "description": "<p>El zombi emite un aura de putrefacción que hace que las heridas supuren. Hasta el inicio de tu siguiente turno, cada vez que golpees a una criatura que esté a 3 metros del zombi e inflijas daño, la criatura recibe [[/r 1d6]] de daño adicional mientras la herida supura. Si tu zombi es ágil o salvaje, el daño aumenta a [[/r 2d6]]. Este es un efecto de enfermedad y nigromancia.</p> <p>"
        },
        "Snake Support Benefit": {
            "name": "Snake Support Benefit",
            "description": "<p>Tu serpiente sujeta a tus enemigos con sus Retorcer, interfiriendo en las reacciones. Hasta el inicio de tu siguiente turno, cualquier criatura a la que amenace tu serpiente no puede usar reacciones desencadenadas por tus acciones a menos que su nivel sea mayor que el tuyo.</p> <p><strong>Tu serpiente no puede usar reacciones desencadenantes</strong>."
        },
        "Ulgrem-Lurann Support Benefit": {
            "name": "Ulgrem-Lurann Support Benefit",
            "description": "<p>El Ulgrem-Lurann agarra a tu enemigo y lo electrocuta. Hasta el inicio de tu siguiente turno, cada vez que golpees a una criatura en el alcance del Ulgrem-Lurann con un Golpe, la criatura recibe [[/r {1d4}[perforante]]]{1d4 de daño perforante} y [[/r {1d4}[electricidad]]]{1d4 de daño de electricidad} adicionales del Ulgrem-Lurann. Si el Ulgrem-Lurann es ágil o Salvajismo, el daño perforante y el daño de electricidad aumentan cada uno a [[/r 2d4]]{2d4}.</p> <p>"
        },
        "Riding Drake Support Benefit": {
            "name": "Riding Drake Support Benefit",
            "description": "<p>Tu draco resopla fuego en la cara de tus enemigos. Hasta el inicio de tu siguiente turno, cada vez que Golpeas mientras montas al drape e impactas a una criatura en el alcance del drape, la criatura recibe [[/r 1d4 # daño de fuego]]{1d4 daño de fuego} del drape. Si tu drake es ágil o salvaje, el daño de fuego aumenta a [[/r 2d4 # fuego]]{2d4}.</p> <p>"
        },
        "Undead Hand Support Benefit": {
            "name": "Undead Hand Support Benefit",
            "description": "<p>La mano golpea con saña a los enemigos que atacas. Hasta el inicio de tu siguiente turno, cada vez que golpees a una criatura en el alcance de la mano con un Golpe, la criatura recibe [[/r {1d6}[bludgeoning]]]{1d6 puntos de daño por bludgeoning} de la mano. Si tu mano es ágil o Salvajismo, el daño de aporrear aumenta a [[/r {2d6}[aporrear]]]{2d6}.</p> <p>"
        },
        "Skeletal Constrictor Support Benefit": {
            "name": "Skeletal Constrictor Support Benefit",
            "description": "<p>Tu serpiente se balancea, cautivando a un enemigo. Elige una criatura en un radio de 6 m de la constrictora que pueda verla. Hasta el inicio de tu próximo turno, tus Golpes que infligen daño a la criatura elegida hacen que el objetivo @Compendium[pf2e.conditionitems.Flat-Footed]{Piesplanos} hasta el final de tu próximo turno.</p> <p>"
        },
        "Bird Support Benefit": {
            "name": "Bird Support Benefit",
            "description": "<p>El pájaro picotea los ojos de tus enemigos cuando elaboras una apertura. Hasta el inicio de tu siguiente turno, tus Golpes que dañen a una criatura a la que amenace tu pájaro también infligen [[/r 1d4 # de daño persistente por sangrado]]{1d4}. @Compendium[pf2e.conditionitems.lDVqvLKA6eF3Df60]{Persistent bleed Damage}, y el objetivo queda @Compendium[pf2e.conditionitems.Dazzled]{Dazzled}# hasta que elimina el daño de sangrado. Si tu ave es ágil o salvaje, el daño persistente por sangrado aumenta a [[/r 2d4 #daño persistente por sangrado]]{2d4}.</p> <p>"
        },
        "Ape Support Benefit": {
            "name": "Ape Support Benefit",
            "description": "<p>Tu simio amenaza a tus enemigos con gruñidos amenazadores. Hasta el inicio de tu siguiente turno, si golpeas e infliges daño a una criatura en el alcance de tu simio, la criatura se convierte en @Compendium[pf2e.conditionitems.Frightened]{Frightened 1}#.</p>"
        },
        "Horse Support Benefit": {
            "name": "Horse Support Benefit",
            "description": "<p>Tu caballo añade impulso a tu carga. Hasta el inicio de tu siguiente turno, si te moviste al menos 10 pies en la acción anterior a tu Golpe, añade un bonificador de circunstancia al daño a ese Golpe igual al doble del número de dados de daño. Si tu arma ya tiene el rasgo de arma de justa, aumenta el bonificador de daño del rasgo en 2 por dado en su lugar.</p> <p>"
        },
        "Beetle Support Benefit": {
            "name": "Beetle Support Benefit",
            "description": "<p>Tu escarabajo pisa fuerte y choca contra los enemigos, desequilibrándolos o apartándolos cuando elaboras una apertura. Hasta el inicio de tu siguiente turno, mientras montas en tu escarabajo, tus Golpes que infligen daño hacen que el objetivo @Compendium[pf2e.conditionitems.Flat-Footed]{Piesplanos}## hasta el final de tu siguiente turno o alejan al objetivo 1,5 metros del escarabajo (esto es movimiento forzado). El objetivo elige qué efecto se produce.</p> <p>"
        },
        "Crocodile Support Benefit": {
            "name": "Crocodile Support Benefit",
            "description": "<p>Tu cocodrilo sujeta con sus fauces a tu enemigo, negándose a soltarlo. Hasta el inicio de tu siguiente turno, si tu Golpe daña a una criatura en el alcance de tu cocodrilo, éste puede aferrarse a la criatura. Mientras esté así enganchado, el cocodrilo puede moverse junto al objetivo siempre que éste se mueva hasta el final de tu siguiente turno. Tu cocodrilo sólo puede aferrarse a una criatura de esta forma, y debe soltarla para realizar un Golpe de mandíbulas. Si el objetivo es más pequeño que el cocodrilo, sufre una penalización de circunstancia de &ndash;10 pies a su Velocidad y no puede Volar mientras el cocodrilo esté enganchado.</p> <p>"
        },
        "Hyena Support Benefit": {
            "name": "Hyena Support Benefit",
            "description": "<p>La hiena aúlla burlonamente a tus enemigos y los muerde cuando elaboras una apertura. Hasta el inicio de tu siguiente turno, cada vez que golpeas a una criatura en el alcance de la hiena con un Golpe, la criatura se convierte en @Compendium[pf2e.conditionitems.Frightened]{Frightened 1}#.</p>"
        },
        "Bat Support Benefit": {
            "name": "Bat Support Benefit",
            "description": "<p>Tu murciélago aletea alrededor de los brazos y rostros de tus enemigos, interponiéndose en sus ataques. Hasta el inicio de tu siguiente turno, las criaturas en el alcance de tu murciélago a las que dañes con Golpes sufren una penalización de circunstancia de 1 a sus tiradas de ataque."
        },
        "Rhinoceros Support Benefit": {
            "name": "Rhinoceros Support Benefit",
            "description": "<p>Tu rinoceronte balancea su pesada cabeza para desequilibrar a tu enemigo. La primera criatura dentro del alcance de tu rinoceronte a la que golpees e inflijas daño antes del comienzo de tu siguiente turno se convierte en @Compendium[pf2e.conditionitems.Clumsy]{Torpe 1}## hasta el final de tu siguiente turno.</p>"
        },
        "Zombie Mount Support Benefit": {
            "name": "Zombie Mount Support Benefit",
            "description": "<p>Tu montura zombi mastica a tus enemigos. Hasta el inicio de tu siguiente turno, cada vez que Golpeas mientras montas en la montura zombi e impactas a una criatura en el alcance de la montura zombi, la criatura recibe [[/r {1d4}[bludgeoning]]]{1d4 de daño por bludgeoning} de la montura zombi. Si tu montura zombi es ágil o salvaje, el daño por apaleamiento aumenta a [[/r {2d4}[apaleamiento]]]{2d4}. Este beneficio se basa en un caballo o camello zombi, pero podría infligir daño punzante si tu montura tiene dientes afilados.</p> <p><strong>Daño de perforación</strong>."
        },
        "Skeletal Mount Support Benefit": {
            "name": "Skeletal Mount Support Benefit",
            "description": "<p>Tu montura esquelética infunde miedo cuando carga. Hasta el comienzo de tu siguiente turno, si estás montado en tu montura esquelética y te mueves al menos 3 metros en la acción anterior a tu ataque, cualquier criatura dañada por el ataque queda @Compendium[pf2e.conditionitems.Frightened]{Aterrorizada 1}, o @Compendium[pf2e.conditionitems.Frightened]{Aterrorizada 2}# si el ataque fue un golpe crítico. Esto es una emoción, miedo y efecto mental.</p> <p>"
        },
        "Shadow Hound Support Benefit": {
            "name": "Shadow Hound Support Benefit",
            "description": "<p>Tu sabueso de las sombras envuelve a tus enemigos en sombras cuando dejas una abertura. Hasta el inicio de tu siguiente turno, cuando dañas a una criatura con un Golpe y esa criatura está al alcance de tu sabueso de las sombras, tanto tú como tu sabueso de las sombras os convertís en @Compendium[pf2e.conditionitems.Concealed]{Concealed}# para la criatura hasta el final de tu siguiente turno.</p>"
        },
        "Moth Support Benefit": {
            "name": "Moth Support Benefit",
            "description": "<p>Tu polilla suelta una lluvia de polvo para revelar a tus enemigos. Hasta el inicio de tu siguiente turno, si dañas a una criatura ###812005ae1f9ea7944e71fdf6ceb9ea###{Oculta}### o @Compendium[pf2e.conditionitems.Hidden]{Oculta}# en los confines de tu polilla con un Golpe, esa criatura sólo requiere un <span data-pf2-check=\"plano\" data-pf2-traits=\"oculto\" data-pf2-label=\"\" data-pf2-dc=\"3\" data-pf2-show-dc=\"all\">Chequeo Plano</span> para designarla como objetivo si está oculta, o <span data-pf2-check=\"plano\" data-pf2-traits=\"oculto\" data-pf2-label=\"\" data-pf2-dc=\"9\" data-pf2-show-dc=\"all\">Flat Check</span> si está oculto. La DC reducida dura hasta el final de tu siguiente turno.</p>"
        },
        "Arboreal Sapling Support Benefit": {
            "name": "Arboreal Sapling Support Benefit",
            "description": "<p>Tu retoño arbóreo planta raíces alrededor de tu enemigo, Obstaculizando su movimiento. Hasta el inicio de tu siguiente turno, si golpeas e infliges daño a una criatura en los confines de tu árbol arbóreo, la primera casilla a la que se mueva la criatura después de recibir ese daño es terreno difícil.</p> <p>"
        }
    },
    "mapping": {
        "description": "system.description.value"
    }
}