{
    "label": "Bestiario de Mwangi",
    "reference": [],
    "entries": {},
    "mapping": {
        "description": "system.details.publicNotes",
        "blurb": "system.details.blurb",
        "cadetails": "system.attributes.ac.details",
        "ci": "system.traits.ci.custom",
        "damageimmunity": "system.traits.di.custom",
        "damageresistance": "system.traits.dr.custom",
        "damagevulnerability": "system.traits.dv.custom",
        "hpdetails": "system.attributes.hp.details",
        "languages": "system.traits.languages.custom",
        "saves": "system.attributes.allSaves.value",
        "senses": "system.traits.senses.value",
        "speeds": "system.attributes.speed.details",
        "traits": "system.traits.traits.custom",
        "items-description": "system.description.value",
        "items-variant0": "system.variants.0.label",
        "items-variant1": "system.variants.1.label",
        "items-variant2": "system.variants.2.label",
        "items": {
            "path": "items",
            "converter": "translateActorItems"
        }
    }
}