{
    "label": "Efectos de mostruos",
    "reference": [],
    "entries": {
        "Effect: Aura of Righteousness (Planetar)": {
            "name": "Efecto: Aura de rectitud (Planetario). (Effect: Aura of Righteousness (Planetar))",
            "description": "<p>Los aliados en el aura del planetario ganan un bonificador de situación +2 a la CA contra criaturas malignas y un bonificador de situación +2 a las tiradas de daño contra criaturas malignas.</p> <p>"
        },
        "Effect: Hallucinogenic Pollen (Failure)": {
            "name": "Efecto: Polen alucinógeno (Fallo) (Effect: Hallucinogenic Pollen (Failure))",
            "description": "<p>La criatura sufre una penalización de situación a los chequeos de Percepción y las salvaciones contra efectos mentales.</p> <p>"
        },
        "Effect: Nymph Queen's Inspiration": {
            "name": "Efecto: Inspiración de la Reina Ninfa (Effect: Nymph Queen's Inspiration)",
            "description": "<p>La criatura gana un bonificador de situación de +1 a todos los chequeos de Elaborar, Interpretar y salvaciones de Voluntad.</p> <p>La criatura gana un bonificador de situación de +1 a todos los chequeos de Elaborar, Interpretar y salvaciones de Voluntad.</p> <p>La criatura gana un bonificador de situación de +1 a todos los chequeos de Elaborar, Interpretar y salvaciones de Voluntad.\n<p>Los bardos reciben beneficios adicionales:</p>\n<ul>\n<li><strong>Musa del enigma:</strong> bonificador +1 de estado a todos los chequeos de Lore <em>(no incluido)</em></li>.\n<li><strong>Maestro Musa:</strong> +2 de bonificación de situación a los chequeos de Interpretar con el fin de determinar los efectos de las Composición</li>.\n<li><strong>Musa polifacótica:</strong> +4 bonificador de situación a los chequeos de habilidad sin entrenamiento</li>.\n<li><strong>Otras musas:</strong> +2 bonificador de situación a las salvaciones de Voluntad contra feérico</li>.\n</ul>"
        },
        "Effect: Crush of Hundreds": {
            "name": "Efecto: Aplastamiento de Cientos (Effect: Crush of Hundreds)",
            "description": "<p>La criatura sufre una penalización de -10 pies a todas las Velocidades.</p>"
        },
        "Effect: Fan Bolt": {
            "name": "Efecto: Rayo Abanico (Effect: Fan Bolt)",
            "description": "<p>La criatura sufre una situación de -10 pies de penalización a su Velocidad de Nadar.</p> <p>Esta criatura sufre una situación de -10 pies de penalización a su Velocidad de Nadar."
        },
        "Effect: Dire Warning": {
            "name": "Efecto: Advertencia funesta (Effect: Dire Warning)",
            "description": "<p>La criatura obtiene un bonificador de situación de +1 a las tiradas de ataque y de daóo.</p> <p>"
        },
        "Effect: Spotlight": {
            "name": "Efecto: Foco (Effect: Spotlight)",
            "description": "<p>El objetivo gana un bonificador de situación +2 a los chequeos de Interpretar y resistencia 10 al daño mental.</p> <p>El objetivo gana un bonificador de situación +2 a los chequeos de Interpretar y resistencia 10 al daño mental."
        },
        "Effect: Pain Frenzy": {
            "name": "Efecto: Enfurecido por el dolor (Effect: Pain Frenzy)",
            "description": "<p>La criatura obtiene una bonificación de situación de +2 a las tiradas de ataque y de daóo."
        },
        "Effect: Void Shroud": {
            "name": "Efecto: Mortaja del vacío (Effect: Void Shroud)",
            "description": "<p>Las criaturas vivas en la emanación sufren una penalización de situación a las salvaciones contra efectos de miedo y muerte.</p> <p>"
        },
        "Effect: Phalanx Fighter": {
            "name": "Efecto: Luchador de Falange (Effect: Phalanx Fighter)",
            "description": "<p>La criatura gana un bonificador +1 de circunstancia a la CA.</p>"
        },
        "Effect: Interpose": {
            "name": "Efecto: Interponer (Effect: Interpose)",
            "description": "<p>La criatura gana un bonificador +2 de circunstancia a la CA.</p>"
        },
        "Effect: Bark Orders": {
            "name": "Efecto: Órdenes de Ladrido (Effect: Bark Orders)",
            "description": "<p>Todos los aliados kobold en un radio de 10 metros de él ganan un bonificador de situación +1 a las tiradas de ataque y a las tiradas de salvación contra efectos de miedo hasta el inicio del siguiente turno del jefe Sootscale.</p> <p>Estado de ánimo."
        },
        "Effect: Bastion Aura": {
            "name": "Efecto: Aura de Bastión (Effect: Bastion Aura)",
            "description": "<p>Todas las criaturas alineadas con el bien en el aura tienen curación rápida 30 mientras permanezcan en su rango de distancia, y obtienen un bonificador de situación +2 a las tiradas de ataque y de daño.</p> <p>Todas las criaturas alineadas con el bien en el aura tienen curación rápida 30 mientras permanezcan en su rango de distancia, y obtienen un bonificador de situación +2 a las tiradas de ataque y de daño."
        },
        "Effect: Countered by Fire": {
            "name": "Efecto: Contrarrestado por Fuego (Effect: Countered by Fire)",
            "description": "<p>La criatura sufre una penalización de -1 de circunstancia a las tiradas de ataque y a la CA, y su Golpe de Fauces no inflige daño de electricidad.</p> <p>Esta criatura sufre una penalización de -1 de circunstancia a las tiradas de ataque y a la CA, y su Golpe de Fauces no inflige daño de electricidad."
        },
        "Effect: Mutilating Bite": {
            "name": "Efecto: Muerdemuerde (Effect: Mutilating Bite)",
            "description": "<p>La criatura sufre entonces una penalización de situación de -1 a los chequeos basados en Carisma. Esta penalización es acumulativa hasta -3.</p>"
        },
        "Effect: Ill Omen": {
            "name": "Efecto: Mal agüero (Effect: Ill Omen)",
            "description": "<p>La criatura sufre una penalización de -1 a las tiradas de ataque, chequeos de habilidad y tiradas de salvación mientras esté dentro del aura del Mal agüero y se vuelve inmune a los efectos de fortuna durante 1 día.</p>"
        },
        "Effect: Witchflame (Failure)": {
            "name": "Efecto: Llama de Bruja (Fallo) (Effect: Witchflame (Failure))",
            "description": "<p>La criatura gana debilidad 5 al fuego.</p>"
        },
        "Effect: Inspired Feast": {
            "name": "Efecto: Festín inspirado. (Effect: Inspired Feast)",
            "description": "<p>La criatura obtiene un bonificador de situación de +1 a las tiradas de ataque y un bonificador de situación de +2 a las tiradas de daóo."
        },
        "Effect: Discerning Aura": {
            "name": "Efecto: Aura de discernimiento (Effect: Discerning Aura)",
            "description": "<p>Todos los muertos vivientes dentro del aura brillan en azul, derramando una luz tenue en un radio de 5 pies.</p>"
        },
        "Effect: Vengeful Fibers": {
            "name": "Efecto: Fibras vengativas (Effect: Vengeful Fibers)",
            "description": "<p>El objetivo sufre una penalización de circunstancia de -10 pies a Velocidad</p>"
        },
        "Effect: Darivan's Bloodline Magic": {
            "name": "Efecto: Magia de linaje de Darivan (Effect: Darivan's Bloodline Magic)",
            "description": "<p>Cuando la magia de linaje de Darivan se activa, sus movimientos se vuelven sobrenaturalmente gráciles y distractores, lo que le otorga un bonificador de estado +1 a los chequeos de Diplomacia durante 1 asalto o le impone una penalización de estado -1 a las salvaciones de Voluntad de un objetivo durante 1 asalto.</p> <p>Eficacia de linaje de Darivan: </p> <p>Los movimientos de Darivan se vuelven sobrenaturalmente gráciles y distractores, lo que le otorga un bonificador de estado +1 a los chequeos de Diplomacia durante 1 asalto o le impone una penalización de estado -1 a las salvaciones de Voluntad de un objetivo durante 1 asalto."
        },
        "Effect: Curse of the Baneful Venom": {
            "name": "Efecto: Maldición del veneno nefasto. (Effect: Curse of the Baneful Venom)",
            "description": "<p>La criatura hace inmediatamente su siguiente tirada de salvación contra un veneno con una penalización de situación de -2.</p> <p>"
        },
        "Effect: Artificer's Command": {
            "name": "Efecto: Orden imperiosa del artífice. (Effect: Artificer's Command)",
            "description": "<p>La criatura obtiene un bonificador de situación de +1 a las tiradas de ataque, tiradas de daóo y tiradas de salvación.</p> <p>"
        },
        "Effect: Nanite Surge (Glow)": {
            "name": "Efecto: Oleaje de Nanite (Resplandor) (Effect: Nanite Surge (Glow))",
            "description": "<p>La criatura emite luz tenue en una emanación de 10 pies.</p>"
        },
        "Effect: Viscous Trap": {
            "name": "Efecto: Trampa viscosa (Effect: Viscous Trap)",
            "description": "<p>La criatura sufre una penalización de circunstancia de -15 pies a todas las Velocidades.</p>"
        },
        "Effect: Swig": {
            "name": "Efecto: Trago (Effect: Swig)"
        },
        "Effect: Alchemical Strike": {
            "name": "Efecto: Impacto alquímico (Effect: Alchemical Strike)",
            "description": "<p>Elige daño de ácido, frío, electricidad o fuego. El drudge imbuye sus ataques con el puño con este daño.</p> <p>Eficacia.\n<p>Cada golpe inflige 1d6 puntos de daño del mismo tipo que el de la bomba cargada en él. Cada bomba tiene suficiente líquido para 10 golpes exitosos.</p> <p>"
        },
        "Effect: Haywire": {
            "name": "Efecto: Haywire (Effect: Haywire)",
            "description": "<p>La criatura sufre una penalización de circunstancia -1 a los Golpes pero inflige un daño adicional [[/r 1d6[bludgeoning]]] más @UUID[Compendium.pf2e.bestiary-ability-glossary-srd.BCLvAx4Pz4MLa2pu]{Derribo}#.</p>"
        },
        "Effect: Putrid Blast": {
            "name": "Efecto: Explosión pútrida (Effect: Putrid Blast)",
            "description": "<p>La criatura sufre un penalizador -2 de circunstancia a las salvaciones de Fortaleza contra la bilis de xulgath durante 1 minuto.</p>"
        },
        "Effect: Defensive Slam": {
            "name": "Efecto: Golpe Defensivo (Effect: Defensive Slam)",
            "description": "<p>La criatura gana un bonificador +2 de circunstancia a la CA.</p>"
        },
        "Effect: Kharna's Blessing": {
            "name": "Efecto: Bendición de Kharna (Effect: Kharna's Blessing)"
        },
        "Effect: Spray Toxic Oil": {
            "name": "Efecto: Rociar Aceite Tóxico (Effect: Spray Toxic Oil)",
            "description": "<p>La criatura gana debilidad al fuego 5, y siempre que falle críticamente una tirada de ataque con un arma empuñada, suelta el arma.</p>"
        },
        "Effect: Inspire Defense (Love Siktempora)": {
            "name": "Efecto: Inspirar defensa (Siktempora amorosa). (Effect: Inspire Defense (Love Siktempora))",
            "description": "<p>La criatura gana un bonificador +2 de situación a la CA y a las tiradas de salvación, así como resistencia 4 al daño físico.</p> <p>Efecto: Inspirar Defensa (Amor Siktempora)."
        },
        "Effect: Call to Action": {
            "name": "Efecto: Llamada a la Acción (Effect: Call to Action)",
            "description": "<p>La criatura obtiene un bonificador de situación de +1 a las tiradas de ataque y de daóo."
        },
        "Effect: Blood Wake": {
            "name": "Efecto: Blood Wake (Effect: Blood Wake)",
            "description": "<p>La criatura sufre un penalizador de situación de -4 a los chequeos de Atletismo para Nadar.</p>"
        },
        "Effect: Take Them Down!": {
            "name": "Efecto: ¬°¡Abatidlos! (Effect: Take Them Down!)",
            "description": "<p>La criatura obtiene un bonificador de situación de +1 a las tiradas de ataque y de daóo.</p> <p>"
        },
        "Effect: Uncanny Tinker": {
            "name": "Efecto: Uncanny Trastear (Effect: Uncanny Tinker)",
            "description": "<p>La criatura gana un bonificador +1 de circunstancia a las tiradas de ataque.</p>"
        },
        "Effect: Fiddle": {
            "name": "Efecto: Violín (Effect: Fiddle)",
            "description": "<p>La criatura sufre una situación de -10 pies de penalización a la Velocidad.</p> <p>Esta criatura sufre una situación de -10 pies de penalización a la Velocidad."
        },
        "Effect: Infectious Aura": {
            "name": "Efecto: Aura Infecciosa (Effect: Infectious Aura)",
            "description": "<p>La criatura sufre una penalización de estado de -2 a las salvaciones contra los efectos de enfermedad.</p> <p>Efecto: Aura infecciosa.\n<p>Si una criatura dentro del rango de distancia contrae o progresa una enfermedad, todas las criaturas adyacentes están expuestas a la misma enfermedad, a la misma DC.</p>"
        },
        "Effect: Smash Kneecaps": {
            "name": "Efecto: Aplastar rótulas (Effect: Smash Kneecaps)",
            "description": "<p>La Velocidad de la criatura se reduce en 10 pies.</p>"
        },
        "Effect: Entangling Train": {
            "name": "Efecto: Tren de enredos (Effect: Entangling Train)",
            "description": "<p>La criatura sufre una penalización de circunstancia de -15 pies a sus Velocidades.</p>"
        },
        "Effect: Commander's Aura": {
            "name": "Efecto: Aura del Comandante (Effect: Commander's Aura)",
            "description": "<p>La criatura gana un bonificador +1 de circunstancia a las tiradas de ataque, tiradas de daño, CA, salvaciones y chequeos de habilidad.</p>"
        },
        "Effect: Curl Up": {
            "name": "Efecto: Enroscarse (Effect: Curl Up)",
            "description": "<p>La criatura gana un bonificador +2 de circunstancia a la CA.</p>"
        },
        "Effect: Volcanic Purge": {
            "name": "Efecto: Purga volcánica. (Effect: Volcanic Purge)",
            "description": "<p>El objetivo recibe [[/r 4d6[persistente,fuego]]] de daño, y mientras tenga este daño persistente de fuego, también recibe una penalización de situación de -10 pies a sus Velocidades.</p> <p>Purga volcánica."
        },
        "Effect: Bodyguard's Defense": {
            "name": "Efecto: Defensa del Guardaespaldas (Effect: Bodyguard's Defense)",
            "description": "<p>La criatura gana un bonificador +2 de circunstancia a la CA.</p>"
        },
        "Effect: Curse of Boiling Blood": {
            "name": "Efecto: Maldición de sangre hirviente. (Effect: Curse of Boiling Blood)",
            "description": "<p>La criatura gana debilidad al fuego 20.</p>"
        },
        "Effect: Hurl Net": {
            "name": "Efecto: Lanzar red. (Effect: Hurl Net)",
            "description": "<p>La criatura sufre una penalización de circunstancia de -10 pies a sus Velocidades.</p>"
        },
        "Effect: Blood Fury": {
            "name": "Efecto: Furia de sangre (Effect: Blood Fury)",
            "description": "<p>La criatura gana un bonificador de situación de +1 a las tiradas de ataque.</p> <p>"
        },
        "Effect: Lantern of Hope": {
            "name": "Efecto: Faro de esperanza (Effect: Lantern of Hope)",
            "description": "<p>La criatura obtiene un bonificador +1 de situación a las tiradas de daño y a las tiradas de salvación contra <em>@UUID[Compendium.pf2e.spells-srd.GaRQlC9Yw1BGKHfN]{Desesperación aplastante}</em>.</p> <p>"
        },
        "Effect: Brand of the Impenitent": {
            "name": "Efecto: Marca del impenitente. (Effect: Brand of the Impenitent)",
            "description": "<p>La criatura sufre una penalización de situación a la CA y a las salvaciones, reduce sus resistencias en 2, y gana debilidad 2 al daño bueno.</p> <p>"
        },
        "Effect: Revert Form": {
            "name": "Efecto: Revertir forma (Effect: Revert Form)",
            "description": "<p>La criatura gana un bonificador de situación de +2 a las tiradas de ataque, tiradas de daño, tiradas de salvación y chequeos de habilidad.</p>"
        },
        "Effect: Death Gasp (Etioling)": {
            "name": "Efecto: Jadeo Mortal (Etioling) (Effect: Death Gasp (Etioling))",
            "description": "<p>La criatura gana los rasgos de muerto viviente e incorpóreo, una Velocidad de vuelo de 25 pies, resistencia 10 a todo daño (excepto fuerza, Toque fantasmal o positivo; el doble de esta resistencia contra no mágico) y se vuelve inmune a sangrado, efectos de muerte, enfermedad, paralizado, veneno y dormir.</p>"
        },
        "Effect: Ghonhatine Feed": {
            "name": "Efecto: Ghonhatino Alimentarse (Effect: Ghonhatine Feed)",
            "description": "<p>La criatura obtiene @UUID[Compendium.pf2e.bestiary-ability-glossary-srd.fJSNOw4zHGbIm4bZ]{Curación rápida 5}## y un bonificador de situación de +2 a las tiradas de daño.</p>"
        },
        "Effect: Lantern of Hope (Gestalt)": {
            "name": "Efecto: Faro de esperanza (Gestalt) (Effect: Lantern of Hope (Gestalt))",
            "description": "<p>La criatura gana un bonificador de estado +3 a las tiradas de daño y a las tiradas de salvación contra <em>@UUID[Compendium.pf2e.spells-srd.GaRQlC9Yw1BGKHfN]{Desesperación aplastante}</em>.</p> <p>"
        },
        "Effect: Curse of Fire": {
            "name": "Efecto: Maldición de Fuego (Effect: Curse of Fire)",
            "description": "<p>La criatura gana debilidad al fuego 15.</p>"
        },
        "Effect: Utter Despair": {
            "name": "Efecto: Desesperación total (Effect: Utter Despair)",
            "description": "<p>Las criaturas vivas se asustan 2 mientras están en un aura de desesperación total. No pueden recuperarse naturalmente de este miedo mientras están en el área, pero pierden el estado negativo (normalmente se abrevia a estado) inmediatamente al salir del área.</p> <p>Las criaturas vivas están asustadas 2 mientras están en un aura de desesperación total."
        },
        "Effect: No Quarter!": {
            "name": "Efecto: ¡Sin cuartel! (Effect: No Quarter!)",
            "description": "<p>El capitán ordena a sus compañeros luchar sin piedad. Todas las criaturas aliadas de nivel igual o inferior en un radio de 6 metros del capitán del barco ganan un bonificador de situación +1 a las tiradas de ataque y daño hasta el final del siguiente turno del capitán del barco.</p> <p>"
        },
        "Effect: Inspire Envoy": {
            "name": "Efecto: Inspirar Enviado (Effect: Inspire Envoy)",
            "description": "<p>La criatura obtiene un bonificador de situación a las tiradas de ataque, a la CA o a todo lo siguiente: Percepción, salvaciones de Voluntad y chequeos de habilidades basados en Carisma. El valor de la bonificación depende de la criatura específica que conceda este efecto.</p> <p>"
        },
        "Effect: Regression": {
            "name": "Efecto: Regresión (Effect: Regression)",
            "description": "<p>La criatura encoge un tamaño y todas las proficiencias de experto y mejor del objetivo se reducen a entrenado.</p> <p>Esta criatura encoge un tamaño y todas las proficiencias de experto y mejor del objetivo se reducen a entrenado."
        },
        "Effect: Stink Sap": {
            "name": "Efecto: Savia Apestosa (Effect: Stink Sap)",
            "description": "<p>Las criaturas y su equipo recubiertos por la savia huelen fatal. Las criaturas en el aura deben hacer una salvación @Check[type:fortitude|dc:16]#. En caso de fallo, la criatura queda @UUID[Compendium.pf2e.conditionitems.fesd1n5eVhpCSS18]{Enferma 1}, y en caso de fallo crítico, la criatura queda también @UUID[Compendium.pf2e.conditionitems.dfCMdR4wnpbYNTix]{Atontada 1}. Mientras esté dentro del aura, la criatura sufre un penalizador -2 de circunstancia a las salvaciones para recuperarse del estado negativo (normalmente se abrevia a estado). Una criatura que tenga éxito en su salvación es inmune a la savia apestosa durante 1 minuto. Las criaturas no se salvan contra este efecto en modo exploración y no se vuelven temporalmente inmunes, pero las criaturas con savia apestosa sobre ellas deben tirar contra su propia aura cuando tiran iniciativa en modo encuentro. La savia se disipa al cabo de 10 horas; dedicar 10 minutos a frotar la savia con agua y jabón reduce la duración en 1 hora.</p> <p>La savia se disipa al cabo de 10 horas."
        },
        "Effect: Disturbing Vision": {
            "name": "Efecto: Visión Perturbadora (Effect: Disturbing Vision)",
            "description": "<p>Las visiones duran [[/br 1d4 #asaltos]]{1d4 asaltos}, y mientras duran, todas las criaturas malignas del área obtienen un bonificador de situación +1 a todos los chequeos.</p>"
        },
        "Effect: Guardian's Aegis": {
            "name": "Efecto: Égida del Guardián (Effect: Guardian's Aegis)",
            "description": "<p>La criatura gana un bonificador de situación de +1 a las salvaciones contra efectos mágicos. El bonificador aumenta a +2 si el efecto procede de un demoníaco o de otro maligno caótico.</p> <p>"
        },
        "Effect: Rune of Smiting (Longspear)": {
            "name": "Efecto: Runa de Herir (Lanza larga) (Effect: Rune of Smiting (Longspear))",
            "description": "<p>Cuando la lanza larga golpea, el gigante puede Empujar al objetivo hacia atrás 3 metros, o 6 metros si el golpe es crítico.</p> <p>Empujar al objetivo hacia atrás 3 metros, o 6 metros si el golpe es crítico."
        },
        "Effect: Sandstorm": {
            "name": "Efecto: Tormenta de arena (Effect: Sandstorm)",
            "description": "<p>La criatura sufre una penalización de -4 de circunstancia a los chequeos de Percepción.</p>"
        },
        "Effect: Rune of Smiting (Rock)": {
            "name": "Efecto: Runa de Smiting (Roca) (Effect: Rune of Smiting (Rock))",
            "description": "<p>Cuando la roca golpea, el gigante puede Empujar al objetivo hacia atrás 10 pies, o 20 pies en un golpe crítico.</p> <p>Empujar al objetivo hacia atrás 10 pies, o 20 pies en un golpe crítico."
        },
        "Effect: Pry": {
            "name": "Efecto: Pry (Effect: Pry)",
            "description": "<p>La criatura sufre una penalización de situación a los chequeos de habilidad basados en Carisma.</p> <p>Esta criatura sufre una penalización de estado a los chequeos de habilidad basados en Carisma."
        },
        "Effect: Tail Lash (Attack Roll)": {
            "name": "Efecto: Azote con la cola (tirada de ataque). (Effect: Tail Lash (Attack Roll))",
            "description": "<p>La criatura sufre una penalización de -2 de circunstancia a la tirada de ataque desencadenante.</p>"
        },
        "Effect: Call to Blood": {
            "name": "Efecto: Llamada a la Sangre (Effect: Call to Blood)",
            "description": "<p>La criatura gana un bonificador de situación de +2 a las tiradas de ataque contra criaturas @UUID[Compendium.pf2e.conditionitems.AJh5ex99aV6VTggg]{Flat-Footed}##.</p>"
        },
        "Effect: Claim Corpse - Fleshy": {
            "name": "Efecto: Reclamar Cadáver - Carnoso (Effect: Claim Corpse - Fleshy)"
        },
        "Effect: Sylvan Wine": {
            "name": "Efecto: Vino silvano (Effect: Sylvan Wine)",
            "description": "<p>La criatura gana un bonificador +1 de objeto a las salvaciones de Voluntad y un bonificador +3 de objeto a las salvaciones de Voluntad contra efectos de miedo.</p> <p>La criatura gana un bonificador +1 de objeto a las salvaciones de Voluntad y un bonificador +3 de objeto a las salvaciones de Voluntad contra efectos de miedo."
        },
        "Effect: Bond in Light": {
            "name": "Efecto: Lazo en Luz (Effect: Bond in Light)",
            "description": "<p>La criatura brilla con luz brillante en una emanación de 20 pies y luz tenue a 40 pies y tiene @UUID[Compendium.pf2e.bestiary-ability-glossary-srd.fJSNOw4zHGbIm4bZ]{Curación Rápida 10}#.</p>"
        },
        "Effect: Consume Organ": {
            "name": "Efecto: Consumir Organo (Effect: Consume Organ)",
            "description": "<p>La criatura gana 15 puntos de golpe temporales y un bonificador de situación de +1 a las tiradas de ataque y de daóo."
        },
        "Effect: Devour Soul": {
            "name": "Efecto: Devorar alma (Effect: Devour Soul)",
            "description": "<p>La criatura gana 10 Puntos de Golpe temporales y un bonificador de situación de +2 a las tiradas de ataque y de daño.</p> <p>Efecto: Devorar alma."
        },
        "Effect: Rune of Destruction (Rock)": {
            "name": "Efecto: Runa de Destrucción (Roca) (Effect: Rune of Destruction (Rock))",
            "description": "<p>La roca gana el rasgo letal con 3d12, y una criatura golpeada con la roca queda @UUID[Compendium.pf2e.conditionitems.4D2KBtexWXa6oUMR]{Drenada 1}## a menos que tenga éxito en una salvación @Check[type:fortitude|dc:35|name:Rune of Destruction|traits:arcane]#.</p>"
        },
        "Effect: Stoke the Fervent - High Tormentor": {
            "name": "Efecto: Avivar a los fervientes - Alto Atormentador (Effect: Stoke the Fervent - High Tormentor)",
            "description": "<p>Cada aliado que escuche la Llamada gana un bonificador de situación +4 a las tiradas de ataque y de daño, un bonificador de situación +2 a las tiradas de salvación y sufre un penalizador de situación -2 a la CA. Los aliados afectados deben usar al menos una de sus acciones para Golpear cada asalto, si pueden, incluso si eso significa atacar a un aliado, un objeto o al aire).</p> <p>La duración del efecto ha sido modificada.\n<p>La duración del efecto se ha establecido en la duración media de [[/br 2d4 #asaltos]]{2d4 asaltos}. Establece la duración al valor correcto cuando se añada el efecto.</p> <p>"
        },
        "Effect: Manipulate Luck (Good)": {
            "name": "Efecto: Manipular Suerte (Bueno) (Effect: Manipulate Luck (Good))",
            "description": "<p>La criatura afectada puede tirar dos veces en una tirada de d20 en el siguiente minuto y usar el resultado más alto.</p>"
        },
        "Effect: Hallucinogenic Pollen (Critical Failure)": {
            "name": "Efecto: Polen alucinógeno (Fallo crítico) (Effect: Hallucinogenic Pollen (Critical Failure))",
            "description": "<p>La criatura sufre una penalización de 4 a la situación en los chequeos de Percepción y las salvaciones contra efectos mentales."
        },
        "Effect: Bully the Departed": {
            "name": "Efecto: Intimidar a los difuntos (Effect: Bully the Departed)",
            "description": "<p>La criatura gana @UUID[Compendium.pf2e.bestiary-ability-glossary-srd.lR9R5Vld8Eu2Dha5]{Regeneración 15 (desactivada por la fuerza o el bien)}, e inflige un [[/r 1d8[maligno]]] de daño extra en sus Golpes.</p>"
        },
        "Effect: Goblin Song": {
            "name": "Efecto: Canción de goblin. (Effect: Goblin Song)",
            "description": "<p>La criatura sufre una penalización de situación a los chequeos de Percepción y a las salvaciones de Voluntad.</p> <p>"
        },
        "Effect: Soul Siphon": {
            "name": "Efecto: Succionar almas (Effect: Soul Siphon)",
            "description": "<p>La criatura gana 5 puntos de golpe temporales y un bonificador de situación de +1 a las tiradas de ataque y de daóo."
        },
        "Effect: Lurker's Glow (Critical Failure)": {
            "name": "Efecto: Lurker's Glow (Fallo crítico) (Effect: Lurker's Glow (Critical Failure))",
            "description": "<p>La criatura emite luz brillante en una emanación de 20 pies mientras dure el efecto.</p>"
        },
        "Effect: Crushing Spirits": {
            "name": "Efecto: Espíritus Aplastantes (Effect: Crushing Spirits)",
            "description": "<p>La criatura sufre una penalización de circunstancia de -10 pies a todas sus Velocidades.</p>"
        },
        "Effect: Dirty Bomb (Critical Failure)": {
            "name": "Efecto: Bomba Sucia (Fallo Crítico) (Effect: Dirty Bomb (Critical Failure))",
            "description": "<p>La criatura sufre una penalización de -3 de circunstancia a las salvaciones de fortaleza contra las Bombas Crudas del químico.</p>"
        },
        "Effect: Inspire Courage (Love Siktempora)": {
            "name": "Efecto: Inspirar valor (Siktempora amorosa). (Effect: Inspire Courage (Love Siktempora))",
            "description": "<p>La criatura gana un bonificador de situación de +2 a las tiradas de ataque, tiradas de daóo y salvaciones contra efectos de miedo.</p> <p>"
        },
        "Effect: Ancestral Response": {
            "name": "Efecto: Respuesta Ancestral (Effect: Ancestral Response)",
            "description": "<p>La criatura gana un bonificador +2 de circunstancia a las tiradas de salvación.</p>"
        },
        "Effect: Runic Resistance": {
            "name": "Efecto: Resistencia Rúnica (Effect: Runic Resistance)",
            "description": "<p>La criatura gana resistencia 5 a un tipo de daño.</p>"
        },
        "Effect: Hurtful Critique": {
            "name": "Efecto: Crítica hiriente (Effect: Hurtful Critique)",
            "description": "<p>La criatura sufre una penalización de circunstancia de -1 a las tiradas de ataque (-2 en un fallo crítico)</p>."
        },
        "Effect: Choose Weakness": {
            "name": "Efecto: Elegir debilidad (Effect: Choose Weakness)",
            "description": "<p>El Ghaele cambia el daño elemental infligido por su gran espada y rayo de fuego a ácido, frío, electricidad, fuego o sónico.</p> <p>El Ghaele cambia el daño elemental infligido por su gran espada y rayo de fuego a ácido, frío, electricidad, fuego o sónico.\n<p>También puede cambiar su resistencia a la energía a cualquiera de estos tipos de energía (puede ser un tipo distinto al de sus ataques)</p> <p>."
        },
        "Effect: Rune of Destruction (Longspear)": {
            "name": "Efecto: Runa de Destrucción (Longspear) (Effect: Rune of Destruction (Longspear))",
            "description": "<p>La lanza larga gana el rasgo letal con 3d8, y una criatura golpeada con la lanza larga queda @UUID[Compendium.pf2e.conditionitems.4D2KBtexWXa6oUMR]{Drenado 1}# a menos que tenga éxito en una salvación @Check[type:fortitude|dc:35|name:Rune of Destruction|traits:arcane]#.</p>"
        },
        "Effect: Energy Ward": {
            "name": "Efecto: Energy Ward (Effect: Energy Ward)",
            "description": "<p>El cascader gana resistencia 15 al daño desencadenante, reemplazando cualquier otra resistencia obtenida de esta habilidad. Los golpes cuerpo a cuerpo del cascader también infligen un daño adicional de 4d10 de este tipo.</p> <p>"
        },
        "Effect: Poison Frenzy": {
            "name": "Efecto: Frenesí de Veneno (Effect: Poison Frenzy)",
            "description": "<p>El devorador de veneno vuela en un frenesí que dura 1 minuto. Mientras está en frenesí, el devorador de veneno obtiene un bonificador de situación +1 a las tiradas de ataque con Golpes cuerpo a cuerpo, obtiene un bonificador de situación +4 a las tiradas de daño con Golpes cuerpo a cuerpo, obtiene 20 Puntos de Golpe temporales hasta el final del frenesí y sufre una penalización de situación -2 a la CA.</p> <p>"
        },
        "Effect: Invigorating Passion": {
            "name": "Efecto: Pasión vigorizante. (Effect: Invigorating Passion)",
            "description": "<p>La criatura obtiene un bonificador de situación de +1 a las tiradas de ataque y 10 puntos de golpe temporales.</p>"
        },
        "Effect: Cat Sith's Mark": {
            "name": "Efecto: Marca del Gato Sith (Effect: Cat Sith's Mark)",
            "description": "<p>Cada vez que la criatura maldita obtenga un éxito crítico en un chequeo de habilidad o tirada de salvación, obtiene un éxito en su lugar. Cada día, una criatura maldita puede hacer un chequeo @Check[type:flat|dc:10|trait:curse,misfortune|name:Break Cat Sith's Mark]## para romper la maldición.</p> <p>"
        },
        "Effect: Fed by Metal": {
            "name": "Efecto: Alimentado por Metal (Effect: Fed by Metal)",
            "description": "<p>La criatura gana un bonificador +1 de objeto a la CA.</p>"
        },
        "Effect: Rune of Destruction (Greatsword)": {
            "name": "Efecto: Runa de Destrucción (Espada Grande) (Effect: Rune of Destruction (Greatsword))",
            "description": "<p>El gran espadón gana el rasgo letal con 3d12, y una criatura golpeada con el gran espadón queda @UUID[Compendium.pf2e.conditionitems.4D2KBtexWXa6oUMR]{Drenado 1}# a menos que tenga éxito en una salvación @Check[type:fortitude|dc:35|name:Rune of Destruction|traits:arcane]#.</p>"
        },
        "Effect: Crush Chitin": {
            "name": "Efecto: Aplastar quitina (Effect: Crush Chitin)",
            "description": "<p>La criatura sufre una penalización de -2 a la CA.</p>"
        },
        "Effect: Splintered Ground (Critical Failure)": {
            "name": "Efecto: Suelo astillado (Fallo crítico) (Effect: Splintered Ground (Critical Failure))",
            "description": "<p>La criatura sufre una penalización de circunstancia de -15 pies a todas las Velocidades.</p>"
        },
        "Effect: Raise Guard": {
            "name": "Efecto: Levantar guardia (Effect: Raise Guard)",
            "description": "<p>La criatura gana un bonificador +2 de circunstancia a la CA.</p>"
        },
        "Effect: Adaptive Strike": {
            "name": "Efecto: Golpe Adaptativo (Effect: Adaptive Strike)",
            "description": "<p>Los golpes cuerpo a cuerpo de la criatura cuentan como adamantinos, hierro frío o plata.</p>"
        },
        "Effect: Calming Bioluminescence": {
            "name": "Efecto: Bioluminiscencia calmante. (Effect: Calming Bioluminescence)",
            "description": "<p>La criatura gana un bonificador +2 de circunstancia a las tiradas de salvación contra efectos de emoción.</p>"
        },
        "Effect: Harmonizing Aura (Allies)": {
            "name": "Efecto: Aura armonizante (aliados). (Effect: Harmonizing Aura (Allies))",
            "description": "<p>La criatura gana un bonificador de situación de +2 a las tiradas de daño sónico y un bonificador de situación de +1 a la CA y a todas las salvaciones contra efectos sónicos y auditivos</p> <p>."
        },
        "Effect: Deceitful Feast (Failure)": {
            "name": "Efecto: Festín Engañoso (Fallo) (Effect: Deceitful Feast (Failure))",
            "description": "<p>La criatura sufre una penalización de circunstancia de -1 a las salvaciones de Voluntad contra cualquiera de los hechizos o habilidades del brughadatch. La penalización aumenta con cada salvación fallida, hasta un máximo de -5.</p> <p>"
        },
        "Effect: Instinctual Tinker (Critical Success)": {
            "name": "Efecto: Trastear instintivo (Éxito crítico). (Effect: Instinctual Tinker (Critical Success))",
            "description": "<p>La criatura gana un bonificador +1 de circunstancia a las tiradas de ataque.</p>"
        },
        "Effect: Inspirational Presence": {
            "name": "Efecto: Presencia Inspiradora (Effect: Inspirational Presence)",
            "description": "<p>Cualquiera de los alumnos del profesor en el aura gana un bonificador +1 de circunstancia a @UUID[Compendium.pf2e.actionspf2e.1OagaWtBpVXExToo]{Recordar conocimiento}##.</p>"
        },
        "Effect: Share Pain": {
            "name": "Efecto: Compartir Dolor (Effect: Share Pain)",
            "description": "<p>La criatura recibe una penalización de situación a sus Velocidades basada en el resultado de su salvación.</p> <p>"
        },
        "Effect: Putrid Stench": {
            "name": "Efecto: Hedor pútrido (Effect: Putrid Stench)",
            "description": "<p>La criatura sufre una situación de -5 pies de penalización a sus Velocidades.</p> <p>Efecto: Hedor pútrido."
        },
        "Effect: Rune of Flames (Longspear)": {
            "name": "Efecto: Runa de las Flamígera. (Effect: Rune of Flames (Longspear))",
            "description": "<p>La lanza larga inflige 3d6 de daño de fuego adicional en todos los ataques.</p>"
        },
        "Effect: Blood Magic": {
            "name": "Efecto: Magia de sangre (Effect: Blood Magic)",
            "description": "<p>La criatura obtiene un bonificador de situación de +2 a las tiradas de salvación de Voluntad.</p>"
        },
        "Effect: Read the Stars (Critical Success)": {
            "name": "Efecto: Leer las estrellas (Éxito crítico) (Effect: Read the Stars (Critical Success))",
            "description": "<p>La criatura gana un bonificador +1 de circunstancia a las tiradas de salvación.</p>"
        },
        "Effect: Stick a Fork in It": {
            "name": "Efecto: Clavarle un tenedor (Effect: Stick a Fork in It)",
            "description": "<p>La criatura sufre una penalización de circunstancia de -10 pies a sus Velocidades.</p>"
        },
        "Effect: Mangling Rend": {
            "name": "Efecto: Desgarro mutilador (Effect: Mangling Rend)",
            "description": "<p>El objetivo recibe una penalización de situación de -20 pies a todas las Velocidades hasta el final de su siguiente turno.</p> <p>Este efecto no tiene efecto."
        },
        "Effect: Profane Gift": {
            "name": "Efecto: Don profano (Effect: Profane Gift)",
            "description": "<p>La criatura gana un bonificador de situación de +1 a las tiradas de ataque, chequeos de habilidad y tiradas de salvación.</p>"
        },
        "Effect: Fettering Fedora": {
            "name": "Efecto: Fettering Fedora (Effect: Fettering Fedora)",
            "description": "<p>La criatura sufre una penalización de circunstancia de -10 pies a sus Velocidades.</p>"
        },
        "Effect: Cite Precedent": {
            "name": "Efecto: Citar Precedente (Effect: Cite Precedent)",
            "description": "<p>La criatura gana una penalización de -2 a las circunstancias en el siguiente chequeo de Diplomacia en una discusión legal.</p>"
        },
        "Effect: Hamstring": {
            "name": "Efecto: Tendón (Effect: Hamstring)",
            "description": "<p>El objetivo recibe una penalización de situación de -10 pies a sus Velocidades.</p> <p>Eficacia: </p> <p>El objetivo recibe una penalización de situación de -10 pies a sus Velocidades."
        },
        "Effect: Unsettled Aura": {
            "name": "Efecto: Aura Inquietante (Effect: Unsettled Aura)",
            "description": "<p>Los gosregs proyectan un campo de energía discordante que inquieta las mentes de las criaturas pensantes. Cualquier criatura no descerebrada en un radio de 30 pies de un gosreg sufre una penalización de situación a las salvaciones de Voluntad.</p> <p>"
        },
        "Effect: Technology Control": {
            "name": "Efecto: Control de Tecnología (Effect: Technology Control)",
            "description": "<p>El objetivo sufre una penalización de -2 de circunstancia a sus tiradas de ataque y CC contra una criatura a la que normalmente no atacaría.</p> <p>El objetivo sufre una penalización de -2 de circunstancia a sus tiradas de ataque y CC contra una criatura a la que normalmente no atacaría.\n<hr />\n<p><em>Nota: este efecto aplica una penalización a todas las tiradas y CC mientras está activo.</em></p> <p>Este efecto aplica una penalización a todas las tiradas y CC mientras está activo."
        },
        "Effect: Call to Halt (Success)": {
            "name": "Efecto: Llamada a Alto (Éxito) (Effect: Call to Halt (Success))",
            "description": "<p>El objetivo recibe una penalización de -10 pies a todas sus Velocidades durante 1 minuto.</p>"
        },
        "Effect: Resonance": {
            "name": "Efecto: Resonancia (Effect: Resonance)",
            "description": "<p>La criatura obtiene un bonificador de situación de +1 a las tiradas de ataque y de daóo por efectos con el rasgo seleccionado; una criatura con los rasgos elemental y seleccionado obtiene este bonificador a todas las tiradas de ataque y de daóo."
        },
        "Effect: Susceptible to Mockery (Critical Failure)": {
            "name": "Efecto: Susceptible a la Burla (Fallo Crítico) (Effect: Susceptible to Mockery (Critical Failure))",
            "description": "<p>La criatura gana un bonificador de situación de +1 a Golpes y tiradas de Daño contra enemigos.</p> <p>Efecto: <strong>Burla</strong>."
        },
        "Effect: Rockfall Failure": {
            "name": "Efecto: Fallo en la Caída de Rocas (Effect: Rockfall Failure)",
            "description": "<p>La criatura afectada sufre una penalización de circunstancia de -10 pies a sus velocidades de movimiento durante 1 asalto.</p>"
        },
        "Effect: Wrath of Spurned Hospitality": {
            "name": "Efecto: Ira de la hospitalidad despreciada (Effect: Wrath of Spurned Hospitality)",
            "description": "<p>La nyktera gana un bonificador de situación de +2 a las tiradas de ataque y daño de sus Golpes de puño.</p> <p>Esta nyktera tiene un bonificador de situación de +2 a las tiradas de ataque y daño de sus Golpes de puño."
        },
        "Effect: Undead Mastery": {
            "name": "Efecto: Maestría de muerto viviente (Effect: Undead Mastery)",
            "description": "<p>La criatura gana un bonificador +1 de circunstancia a las tiradas de ataque, tiradas de daño, CA, salvaciones y chequeos de habilidad.</p>"
        },
        "Effect: Filth Wave": {
            "name": "Efecto: Ola de Suciedad (Effect: Filth Wave)",
            "description": "<p>La criatura sufre una penalización de -10 pies a sus Velocidades.</p>"
        },
        "Effect: Barbed Net": {
            "name": "Efecto: Red de Púas (Effect: Barbed Net)",
            "description": "<p>La criatura sufre una penalización de circunstancia de -10 pies a sus Velocidades.</p>"
        },
        "Effect: Whirlwind Form": {
            "name": "Efecto: Forma de torbellino (Effect: Whirlwind Form)",
            "description": "<p>La criatura gana resistencia 10 al daño físico.</p>"
        },
        "Effect: Wild Shape (Oaksteward)": {
            "name": "Efecto: Forma salvaje (Oaksteward) (Effect: Wild Shape (Oaksteward))",
            "description": "<p>Las manos de Oaksteward se transforman en garras salvajes.</p>"
        },
        "Effect: Absorb Memories": {
            "name": "Efecto: Absorber Recuerdos (Effect: Absorb Memories)",
            "description": "<p>La criatura gana un bonificador de situación de +1 a todos los chequeos de habilidad.</p> <p>"
        },
        "Effect: Guiding Words": {
            "name": "Efecto: Guiding Words (Effect: Guiding Words)"
        },
        "Effect: Feed": {
            "name": "Efecto: Alimentarse (Effect: Feed)",
            "description": "<p>La criatura obtiene una bonificación de situación a sus chequeos y CC en función de la frecuencia con la que haya usado la habilidad Alimentarse.</p> <p>"
        },
        "Effect: Aura of Vitality": {
            "name": "Efecto: Aura de Vitalidad (Effect: Aura of Vitality)",
            "description": "<p>Los aliados en el aura de la deva movánica ganan un bonificador de situación +1 a todas las tiradas de salvación, resistencia 10 al daño positivo y negativo, y quedan ilesos de los efectos de los rasgos positivos y negativos de un plano. Los animales en el aura de nivel 12 o inferior no atacan a la deva movánica ni a los aliados de la deva a menos que sean controlados/a o forzados de otro modo a atacar.</p> <p>"
        },
        "Effect: Despoiler": {
            "name": "Efecto: Despojador (Effect: Despoiler)",
            "description": "<p>La criatura sufre una penalización de -2 de circunstancia a todas las tiradas de salvación contra venenos, enfermedades y drogas.</p> <p>La criatura sufre una penalización de -2 de circunstancia a todas las tiradas de salvación contra venenos, enfermedades y drogas."
        },
        "Effect: Hydra Heads": {
            "name": "Efecto: Cabezas de Hidra (Effect: Hydra Heads)",
            "description": "<p>El número de cabezas que tiene actualmente la hidra.</p>"
        },
        "Effect: Breach the Abyss - Negative": {
            "name": "Efecto: Emerger el Abismo - Negativo (Effect: Breach the Abyss - Negative)",
            "description": "<p>La criatura inflige un [[/r 2d6[negativo]]] de daño extra con su arma.</p>"
        },
        "Effect: Under Command": {
            "name": "Efecto: Bajo orden imperiosa (Effect: Under Command)",
            "description": "<p>Comandada por un capitán de la guardia.</p>"
        },
        "Effect: Timely Advice": {
            "name": "Efecto: Consejo Oportuno (Effect: Timely Advice)",
            "description": "<p>El sabio da un sabio consejo al aliado, proporcionándole una valiosa perspicacia. El aliado obtiene un bonificador +2 de circunstancia a la tirada desencadenante.</p> <p>"
        },
        "Effect: Protean Anatomy": {
            "name": "Efecto: Anatomía Proteica (Effect: Protean Anatomy)",
            "description": "<p>La criatura gana resistencia a ácido, electricidad o sónico según su Anatomía Proteica.</p>"
        },
        "Effect: Aura of Protection (Solar)": {
            "name": "Efecto: Aura de protección (Solar). (Effect: Aura of Protection (Solar))",
            "description": "<p>Los aliados en el aura del solar ganan un bonificador +2 de situación a la CA contra criaturas malignas y un bonificador +2 de situación a las salvaciones contra efectos de criaturas malignas. El bonificador aumenta a +4 contra el control de criaturas malignas y los ataques de criaturas invocadas malignas.</p> <p>"
        },
        "Effect: Ectoplasmic Form (Physical)": {
            "name": "Efecto: Forma Ectoplásmica (Física) (Effect: Ectoplasmic Form (Physical))",
            "description": "<p>La criatura pierde el rasgo incorpóreo, la inmunidad al daño de precisión y todas las resistencias. Gana puntos de golpe temporales y una clase de armadura aumentada según la criatura específica, sus golpes con las mandíbulas infligen daño perforante y sus golpes con las garras infligen daño cortante en lugar de negativo.</p> <p>"
        },
        "Effect: Distracting Frolic": {
            "name": "Efecto: Cabriolas desconcertantes (Effect: Distracting Frolic)",
            "description": "<p>El aliado designado como objetivo puede tirar la salvación dos veces y tomar el mejor resultado.</p> <p>El aliado designado como objetivo puede tirar la salvación dos veces y tomar el mejor resultado."
        },
        "Effect: Aura of Command": {
            "name": "Efecto: Aura de orden imperiosa (Effect: Aura of Command)",
            "description": "<p>La criatura obtiene un bonificador de situación de +1 a las tiradas de ataque y un bonificador de situación de +2 a las salvaciones de Voluntad.</p> <p>"
        },
        "Effect: Curse of Stone": {
            "name": "Efecto: Maldición de Piedra (Effect: Curse of Stone)",
            "description": "<p>La criatura gana un bonificador de situación de +1 a su CA.</p>"
        },
        "Effect: PFS Level Bump": {
            "name": "Efecto: Subida de Nivel PFS (Effect: PFS Level Bump)",
            "description": "<p>Los escenarios y las misiones están diseñados para desafiar a los PC cuyo nivel medio es el más bajo de los dos niveles de un rango de distancia dado (es decir, el rango de distancia 1-2 está construido para desafiar a los PC de 1er nivel, y el rango de distancia 3-4 está construido para desafiar a los PC de 3er nivel). Normalmente, cuando el total de Puntos de Desafío determina que el poder general del grupo es equivalente al nivel más alto en un Rango de Nivel (por ejemplo, 2º nivel en Rango de Nivel 1-2), el escalado del escenario se ajustará a esto.</p> <p><strong>Puntos de Desafío</strong>.\n<p>Sin embargo, a veces es necesario añadir un aumento de nivel, como cuando el escalado del escenario se basa en el número de jugadores, o si el escenario carece de un escalado de nivel bajo 16-18.</p> <p>\n<ul>\n<li>Aumenta los modificadores de ataque, el daño de ataque, el daño de hechizo, los modificadores de tirada de salvación, los modificadores de habilidad, los modificadores de Percepción y las CA en 1.</li> <li>\n<li>Aumenta el total de puntos de golpe en 10 o en un 10%, lo que sea mayor.</li>\n</ul>"
        },
        "Effect: Share Defenses": {
            "name": "Efecto: Compartir Defensas (Effect: Share Defenses)",
            "description": "<p>La criatura gana resistencia al frío 10.</p>"
        },
        "Effect: Hypnotic Stare": {
            "name": "Efecto: Mirada hipnótica (Effect: Hypnotic Stare)",
            "description": "<p>Ese objetivo sufre una penalización de -2 a las tiradas de salvación de Voluntad.</p> <p>Ese objetivo sufre una penalización de -2 a las tiradas de salvación de Voluntad."
        },
        "Effect: Countered by Water": {
            "name": "Efecto: Contrarrestado por Agua (Effect: Countered by Water)",
            "description": "<p>La criatura sufre una penalización de -1 de circunstancia a las tiradas de ataque, y su Golpe de fauces no inflige daño de fuego.</p> <p>Esta criatura sufre una penalización de -1 de circunstancia a las tiradas de ataque, y su Golpe de fauces no inflige daño de fuego."
        },
        "Effect: Pollution Infusion": {
            "name": "Efecto: Infusión de Contaminación (Effect: Pollution Infusion)"
        },
        "Effect: Form a Phalanx": {
            "name": "Efecto: Forma una Falange (Effect: Form a Phalanx)",
            "description": "<p>La criatura gana un bonificador +2 de circunstancia a la CA.</p>"
        },
        "Effect: Despair": {
            "name": "Efecto: Desesperación (Effect: Despair)",
            "description": "<p>Las criaturas vivas se asustan 1 mientras están en un aura de desesperación. No pueden recuperarse naturalmente de este miedo mientras están en el área, pero se recuperan instantáneamente una vez que salen de la zona.</p> <p>"
        },
        "Effect: Vulnerable to Curved Space": {
            "name": "Efecto: Vulnerable a Espacio Curvo (Effect: Vulnerable to Curved Space)",
            "description": "<p>Cuando un sabueso de Tíndalos no está adyacente a un ángulo estructural de 90º (o más agudo), su resistencia al daño físico se suprime y se convierte en enfermizo 1.</p> <p>"
        },
        "Effect: Guildmaster's Lead": {
            "name": "Efecto: Guildmaster's Lead (Effect: Guildmaster's Lead)"
        },
        "Effect: Aura of Misfortune": {
            "name": "Efecto: Aura de infortunio (Effect: Aura of Misfortune)",
            "description": "<p>Las criaturas vivas deben tirar dos veces en todas las tiradas d20 y usar el resultado más bajo.</p>"
        },
        "Effect: Overtake Soul": {
            "name": "Efecto: Superar Alma (Effect: Overtake Soul)"
        },
        "Effect: Sinful Bite": {
            "name": "Efecto: Muerdemuerde Pecaminoso (Effect: Sinful Bite)",
            "description": "<p>La criatura sufre una situación de -10 pies de penalización a sus Velocidades.</p> <p>Esta criatura sufre una situación de -10 pies de penalización a sus Velocidades."
        },
        "Effect: Bosun's Command - Speed Bonus": {
            "name": "Efecto: Orden imperiosa - Bonificación de Velocidad. (Effect: Bosun's Command - Speed Bonus)",
            "description": "<p>La criatura gana una situación de +10 a sus Velocidades.</p>"
        },
        "Effect: Rune of Flames (Rock)": {
            "name": "Efecto: Runa de Flamígera (Roca). (Effect: Rune of Flames (Rock))",
            "description": "<p>La roca inflige 3d6 de daño de fuego adicional en todos los ataques.</p>"
        },
        "Effect: Reminder of Doom": {
            "name": "Efecto: Recordatorio de Perdición (Effect: Reminder of Doom)",
            "description": "<p>La criatura obtiene un bonificador de situación de +2 a las tiradas de ataque y a las tiradas de daóo."
        },
        "Effect: Breach the Abyss - Fire": {
            "name": "Efecto: Emerger el Abismo - Fuego (Effect: Breach the Abyss - Fire)",
            "description": "<p>La criatura inflige un [[/r 2d6[fuego]]] de daño extra con su arma.</p>"
        },
        "Effect: Lost Plates": {
            "name": "Efecto: Placas Perdidas (Effect: Lost Plates)",
            "description": "<p>La criatura sufre una penalización de situación a la CA igual al nómero de placas perdidas.</p>"
        },
        "Effect: Fiery Form": {
            "name": "Efecto: Forma Ardiente (Effect: Fiery Form)",
            "description": "<p>La saga sanguínea obtiene el rasgo fuego y una Velocidad de volar de 60 pies, se vuelve inmune al fuego y emite luz como una antorcha.</p>"
        },
        "Effect: Pulse of Rage": {
            "name": "Efecto: Pulso de Furia (Effect: Pulse of Rage)",
            "description": "<p>La criatura sufre un penalizador de situación de -1 a la CA.</p>"
        },
        "Effect: Glowing Spores": {
            "name": "Efecto: Esporas Brillantes (Effect: Glowing Spores)",
            "description": "<p>La criatura sufre una penalización de -4 a los chequeos de Sigilo.</p>"
        },
        "Effect: Song of the Swamp": {
            "name": "Efecto: Canción del Pantano (Effect: Song of the Swamp)",
            "description": "<p>La criatura obtiene un bonificador de situación de +2 a las tiradas de daóo y a las salvaciones contra el miedo.</p> <p>"
        },
        "Effect: Parry Dance": {
            "name": "Efecto: Parry Danzante (Effect: Parry Dance)",
            "description": "<p>El rastrillo gana un bonificador +2 de circunstancia a la CA hasta el final de su siguiente turno.</p>"
        },
        "Effect: Ancestral Journey": {
            "name": "Efecto: Viaje Ancestral (Effect: Ancestral Journey)",
            "description": "<p>La criatura obtiene un bonificador de situación +1 a las tiradas de salvación de Voluntad y a todos los chequeos de habilidad.</p> <p>La criatura obtiene un bonificador de situación +1 a las tiradas de salvación de Voluntad y a todos los chequeos de habilidad."
        },
        "Effect: Sticky Spores": {
            "name": "Efecto: Esporas Pegajosas (Effect: Sticky Spores)",
            "description": "<p>La criatura sufre una situación de -10 pies de penalización a todas sus Velocidades.</p> <p>Esta criatura sufre una situación de -10 pies de penalización a todas sus Velocidades."
        },
        "Effect: Rapid Evolution - Husk": {
            "name": "Efecto: Evolución Rápida - Husk (Effect: Rapid Evolution - Husk)",
            "description": "<p>La criatura gana resistencia al daño físico similar al tipo desencadenante.</p>"
        },
        "Effect: Musk": {
            "name": "Efecto: Almizcle (Effect: Musk)",
            "description": "<p>La criatura sufre una penalización de -2 a los chequeos de Sigilo.</p>"
        },
        "Effect: Entangling Slime": {
            "name": "Efecto: Limo enmarado (Effect: Entangling Slime)",
            "description": "<p>La criatura sufre una penalización de -5 pies a Velocidad.</p>"
        },
        "Effect: Ganzi Resistance": {
            "name": "Efecto: Resistencia Ganzi (Effect: Ganzi Resistance)",
            "description": "<p>La criatura gana una cantidad de resistencia a ácido, electricidad o sónico (elegida al azar cada día) basada en la criatura específica.</p>"
        },
        "Effect: Alchemical Crossbow": {
            "name": "Efecto: Ballesta alquímica (Effect: Alchemical Crossbow)",
            "description": "<p>La Ballesta alquímica inflige 1d6 de daño adicional del tipo infligido por la bomba utilizada.</p>"
        },
        "Effect: Air of Sickness": {
            "name": "Efecto: Aire de Enfermedad (Effect: Air of Sickness)",
            "description": "<p>La criatura sufre una penalización de situación a las salvaciones realizadas para resistir enfermedades.</p> <p>Efecto: Aire de enfermedad."
        },
        "Effect: Witchflame (Success)": {
            "name": "Efecto: Llama de Bruja (Éxito) (Effect: Witchflame (Success))",
            "description": "<p>La criatura gana debilidad 5 al fuego.</p>"
        },
        "Effect: Blood Soak": {
            "name": "Efecto: Blood Soak (Effect: Blood Soak)",
            "description": "<p>La criatura gana un bonificador de situación de +4 a las tiradas de daño.</p>"
        },
        "Effect: Ensnare": {
            "name": "Efecto: Enredar (Effect: Ensnare)",
            "description": "<p>La criatura sufre una situación de -10 pies de penalización a su Velocidad.</p> <p>Esta criatura sufre una situación de -10 pies de penalización a su Velocidad."
        },
        "Effect: Vent Energy": {
            "name": "Efecto: Expulsar gases (Effect: Vent Energy)",
            "description": "<p>Los golpes con el brazo del arma de la criatura infligen un daño extra de energía de 2d6 según el tipo de daño en la glándula de energía.</p>"
        },
        "Effect: Rope Snare": {
            "name": "Efecto: Atrapar con cuerda (Effect: Rope Snare)",
            "description": "<p>La criatura sufre una penalización de circunstancia de 10 pies a la Velocidad.</p>"
        },
        "Effect: Fetid Screech (Critical Failure)": {
            "name": "Efecto: Grito fétido (Fallo crítico) (Effect: Fetid Screech (Critical Failure))",
            "description": "<p>La criatura sufre una situación de -5 pies de penalización a sus Velocidades.</p> <p>"
        },
        "Effect: Bully's Rage": {
            "name": "Efecto: Furia de Matón (Effect: Bully's Rage)",
            "description": "<p>El matón gana un bonificador +2 de situación a los chequeos de Intimidación y daño hasta el final de su turno.</p> <p>Este matón tiene un bonificador +2 de situación a los chequeos de Intimidación y daño hasta el final de su turno."
        },
        "Effect: Necrotic Field": {
            "name": "Efecto: Campo Necrótico (Effect: Necrotic Field)",
            "description": "<p>Los muertos vivientes dentro del aura infligen un [[/r 1d6[negativo]]] de daño adicional con sus ataques naturales.</p>"
        },
        "Effect: Phantasmagoric Fog": {
            "name": "Efecto: Niebla fantasmagórica (Effect: Phantasmagoric Fog)",
            "description": "<p>La sala se llena de una niebla violeta que impone una penalización de -2 a los chequeos de Percepción a todas las criaturas que se encuentren en su interior y expone a cualquiera que entre en ella a la niebla fantasmagórica.</p> <p>Efecto: niebla fantasmagórica."
        },
        "Effect: Sting of the Lash": {
            "name": "Efecto: Aguijón del Latigazo (Effect: Sting of the Lash)",
            "description": "<p>La criatura gana 5 Puntos de Golpe temporales.</p>"
        },
        "Effect: Lost Red Cap": {
            "name": "Efecto: Gorro rojo perdido (Effect: Lost Red Cap)",
            "description": "<p>La criatura sufre una penalización de 4 a su situación en sus tiradas de daóo."
        },
        "Effect: Witchflame (Critical Failure)": {
            "name": "Efecto: Llama de bruja (Fallo crítico) (Effect: Witchflame (Critical Failure))",
            "description": "<p>La criatura gana debilidad 10 al fuego.</p>"
        },
        "Effect: Bittersweet Dreams": {
            "name": "Efecto: Sueños agridulces. (Effect: Bittersweet Dreams)",
            "description": "<p>La criatura sufre una penalización de situación a las tiradas de ataque, tiradas de salvación y chequeos de habilidad segón el resultado de su salvación."
        },
        "Effect: Harmonizing Aura (Enemies)": {
            "name": "Efecto: Aura armonizante (enemigos). (Effect: Harmonizing Aura (Enemies))",
            "description": "<p>La criatura gana un bonificador de situación de -2 a las tiradas de daño sónico y un bonificador de situación de -1 a la CA y a todas las salvaciones contra efectos sónicos y auditivos</p> <p>."
        },
        "Effect: Fortune's Favor": {
            "name": "Efecto: Favor de la Fortuna (Effect: Fortune's Favor)",
            "description": "<p>Cada vez que la criatura hace una tirada de salvación de un tipo específico, tira dos veces y toma el resultado más alto. El tipo de tirada de salvación viene determinado por el traje que haya destacado más en la lectura de la grada: Fortaleza (Martillos o Escudos), Reflejos (Llaves o Libros), o Voluntad (Estrellas o Coronas)</p> <p>"
        },
        "Effect: Stench": {
            "name": "Efecto: Hedor (Effect: Stench)",
            "description": "<p>La criatura sufre una penalización de -2 a las salvaciones contra enfermedad.</p>"
        },
        "Effect: Aura of Corruption": {
            "name": "Efecto: Aura de Corrupción (Effect: Aura of Corruption)",
            "description": "<p>La criatura es tratada como si fuera una planta a efectos de cualquier efecto que daña o incomoda particularmente a las criaturas planta más que a otras criaturas, pero no obtiene ningún beneficio de ser una criatura planta.</p>"
        },
        "Effect: Drain Luck": {
            "name": "Efecto: Drenar Suerte (Effect: Drain Luck)",
            "description": "<p>La criatura debe tener éxito en una salvación @Check[type:will|dc:48]# o gana una penalización de situación de -1 a todos los chequeos; entonces es temporalmente inmune a Drenar Suerte durante 1 asalto. El daño adicional infligido por la runa de golpe abrasadora del Rey Linterna aumenta la situación en 1 en una salvación fallida, hasta una situación móxima de -4. Esta situación se reduce en 1 cada vez que la criatura afectada obtiene un óxito crótico en una tirada contra una criatura que tenga al menos su mismo nivel, pero por lo demós es permanente hasta que se elimine.</p> <p>"
        },
        "Effect: Crocodile Form": {
            "name": "Efecto: Forma de Cocodrilo (Effect: Crocodile Form)",
            "description": "<p>El bunyip gana una Velocidad terrestre de 20 pies, pero su Golpe de Fauces pierde el daño persistente de sangrado.</p> <p>El bunyip gana una Velocidad terrestre de 20 pies, pero su Golpe de Fauces pierde el daño persistente de sangrado.</p> <p>El bunyip gana una Velocidad terrestre de 20 pies, pero su Golpe de Fauces pierde el daño persistente de sangrado."
        },
        "Effect: Focused Assault": {
            "name": "Efecto: Asalto concentrado (Effect: Focused Assault)",
            "description": "<p>La criatura inflige daño adicional basado en la cantidad de espadas largas que empuña.</p>"
        },
        "Effect: Crystalline Dust Form": {
            "name": "Efecto: Forma de Polvo Cristalino (Effect: Crystalline Dust Form)",
            "description": "<p>La criatura gana una Velocidad de volar de 40 pies.</p>"
        },
        "Effect: Spiritual Warden": {
            "name": "Efecto: Guardián Espiritual (Effect: Spiritual Warden)",
            "description": "<p>Los aliados en el aura ganan un bonificador de situación +2 a las tiradas de salvación contra efectos de muerte y efectos que designen como objetivo o manipulen sus almas.</p>"
        },
        "Effect: War Leader": {
            "name": "Efecto: Líder de Guerra (Effect: War Leader)",
            "description": "<p>La criatura obtiene un bonificador de situación de +1 a las tiradas de ataque y a los chequeos de habilidad.</p> <p>Eficacia."
        },
        "Effect: Bloodline Magic": {
            "name": "Efecto: Magia de linaje (Effect: Bloodline Magic)",
            "description": "<p>La criatura gana un bonificador de situación de +1 a los chequeos de Engaóo.</p> <p>"
        },
        "Effect: Activate Defenses": {
            "name": "Efecto: Activar Defensas (Effect: Activate Defenses)",
            "description": "<p>La criatura gana un bonificador +2 de circunstancia a la CA.</p>"
        },
        "Effect: Hunted Fear": {
            "name": "Efecto: Temor a ser cazado (Effect: Hunted Fear)",
            "description": "<p>La criatura sufre una penalización de -2 de circunstancia a los chequeos de Supervivencia para evitar perderse.</p> <p>La criatura sufre una penalización de -2 de circunstancia a los chequeos de Supervivencia para evitar perderse."
        },
        "Effect: Brutal Rally": {
            "name": "Efecto: Reunión brutal (Effect: Brutal Rally)",
            "description": "<p>La criatura gana un bonificador +1 de circunstancia a las tiradas de ataque.</p>"
        },
        "Effect: Wrath of Fate": {
            "name": "Efecto: Ira del Destino (Effect: Wrath of Fate)",
            "description": "<p>Una criatura afectada puede elegir tirar dos veces cuando hace un intento de ataque, tirada de salvación o chequeo de habilidad y tomar el resultado más bajo. Después de esto el efecto termina.</p>"
        },
        "Effect: Sixfold Flurry": {
            "name": "Efecto: Ráfaga séxtuple (Effect: Sixfold Flurry)",
            "description": "<p>La criatura gana un bonificador de circunstancia a la CA basado en los Golpes que decidió no recibir.</p>"
        },
        "Effect: Divine Aegis": {
            "name": "Efecto: Égida Divina (Effect: Divine Aegis)",
            "description": "<p>La criatura gana un bonificador +1 de circunstancia a las tiradas de salvación contra efectos mágicos no divinos y una penalización -1 de circunstancia a las salvaciones contra efectos divinos.</p>"
        },
        "Effect: Defensive Slice": {
            "name": "Efecto: Rebanada Defensiva (Effect: Defensive Slice)",
            "description": "<p>El Barón Drelev adopta una posición defensiva con las armas desplegadas y luego hace un Golpe cuerpo a cuerpo. Sufre una penalización de situación en todos los Golpes (incluido este) y obtiene un bonificador de situación +2 a su CA hasta el inicio de su siguiente turno.</p> <p>"
        },
        "Effect: Inspiring Presence": {
            "name": "Efecto: Presencia Inspiradora (Effect: Inspiring Presence)",
            "description": "<p>La criatura gana un bonificador +2 de circunstancia a las salvaciones contra efectos de miedo.</p>"
        },
        "Effect: Sylvan Wine (Horned Hunter)": {
            "name": "Efecto: Vino silvano (Cazador con cuernos) (Effect: Sylvan Wine (Horned Hunter))",
            "description": "<p>La criatura gana un bonificador de objeto +3 a las salvaciones de Voluntad.</p>"
        },
        "Effect: Breach the Abyss - Acid": {
            "name": "Efecto: Emerger el Abismo - Ácido (Effect: Breach the Abyss - Acid)",
            "description": "<p>La criatura inflige un [[/r 2d6[ácido]]] de daño extra con su arma.</p>"
        },
        "Effect: Dirty Bomb": {
            "name": "Efecto: Bomba Sucia (Effect: Dirty Bomb)",
            "description": "<p>La criatura sufre un penalizador -2 de circunstancia a las salvaciones de fortaleza contra las Bombas Crudas del químico.</p>"
        },
        "Effect: Claim Corpse - Skeletal": {
            "name": "Efecto: Reclamar Cadáver - Esquelético (Effect: Claim Corpse - Skeletal)"
        },
        "Effect: Guide's Warning": {
            "name": "Efecto: Advertencia del Guía (Effect: Guide's Warning)"
        },
        "Effect: Rune of Smiting (Greatsword)": {
            "name": "Efecto: Runa de Smiting (Greatsword) (Effect: Rune of Smiting (Greatsword))",
            "description": "<p>Cuando el gran espadón golpea, el gigante puede Empujar al objetivo hacia atrás 3 metros, o 6 metros si el golpe es crítico.</p> <p>Empujar al objetivo hacia atrás 3 metros, o 6 metros si el golpe es crítico."
        },
        "Effect: Oceanic Armor": {
            "name": "Efecto: Armadura Oceánica (Effect: Oceanic Armor)",
            "description": "<p>La criatura gana un bonificador +2 de circunstancia a la CA.</p>"
        },
        "Effect: Totems of the Past": {
            "name": "Efecto: Tótems del pasado (Effect: Totems of the Past)",
            "description": "<p>Todos los aliados lizardfolk de la zona se inspiran, ganando un bonificador de situación +1 a las tiradas de ataque.</p> <p>Efecto: Tótems del pasado."
        },
        "Effect: Death Gasp": {
            "name": "Efecto: Jadeo Mortal (Effect: Death Gasp)",
            "description": "<p>La criatura gana el rasgo muerto viviente y se vuelve inmune a sangrado, efectos de muerte, enfermedad, paralizado, veneno y dormir.</p>"
        },
        "Effect: Mortal Reflection": {
            "name": "Efecto: Reflejo Mortal (Effect: Mortal Reflection)",
            "description": "<p>El autómata imperfecto recurre a las emociones del objetivo para recordar una semblanza de sentimiento mortal, obteniendo un bonificador de situación de +5 pies a su Velocidad durante 1 minuto.</p> <p>"
        },
        "Effect: Gloom Aura": {
            "name": "Efecto: Aura Sombría (Effect: Gloom Aura)",
            "description": "<p>La criatura sufre una penalización de circunstancia de -1 a las tiradas de salvación realizadas para resistir efectos de emoción.</p>"
        },
        "Effect: Blood Siphon (Critical Failure)": {
            "name": "Efecto: Sifón de Sangre (Fallo Crítico) (Effect: Blood Siphon (Critical Failure))",
            "description": "<p>La criatura gana un bonificador de situación de +2 a la CA y a las salvaciones.</p>"
        },
        "Effect: Waterlogged": {
            "name": "Efecto: Anegado (Effect: Waterlogged)",
            "description": "<p>Mientras está anegado, el berberoka puede usar Pulverizar agua, su tamaño aumenta a Gargantuesco y su Velocidad se reduce a 15 pies.</p> <p>Efecto anegado."
        },
        "Effect: Blasphemous Utterances": {
            "name": "Efecto: Proclamaciones blasfemas (Effect: Blasphemous Utterances)",
            "description": "<p>La criatura sufre una penalización de -2 a las salvaciones contra efectos mentales.\n<p>No puede realizar acciones que tengan el rasgo concentrado a menos que supere un chequeo @Check[type:flat|dc:10]. Fallar esta comprobación desperdicia la acción.</p> <p>"
        },
        "Effect: Devour Soul (Victim Level 15 or Higher)": {
            "name": "Efecto: Devorar alma (nivel de la víctima 15 o superior). (Effect: Devour Soul (Victim Level 15 or Higher))",
            "description": "<p>La criatura gana 10 Puntos de Golpe temporales y un bonificador de situación de +2 a las tiradas de ataque y de daño.</p> <p>Efecto: Devorar alma."
        },
        "Effect: Consume Memories": {
            "name": "Efecto: Consumir recuerdos (Effect: Consume Memories)",
            "description": "<p>Vordakai obtiene una bonificación de situación +1 a todos los chequeos de habilidad durante 1 minuto como resultado de los recuerdos consumidos.</p> <p class='spip'>"
        },
        "Effect: Graveknight's Curse": {
            "name": "Efecto: Maldición del caballero sepulcral. (Effect: Graveknight's Curse)",
            "description": "<p>La Velocidad de la criatura se reduce en 10.</p>"
        },
        "Effect: Battle Cry": {
            "name": "Efecto: Grito de guerra (Effect: Battle Cry)",
            "description": "<p>La criatura obtiene un bonificador de situación de +1 a las tiradas de ataque y de daóo."
        },
        "Effect: Remove Face": {
            "name": "Efecto: Quitar Cara (Effect: Remove Face)",
            "description": "<p>La criatura sufre una penalización de situación permanente de -4 a los chequeos de Carisma y a los chequeos de habilidades basadas en Carisma. Este penalizador sólo puede eliminarse si la víctima recupera el rostro y se le lanza un hechizo <em>@UUID[Compendium.pf2e.spells-srd.SnaLVgxZ9ryUFmUr]{Restauración}</em>.</p> <p>"
        },
        "Effect: Swell": {
            "name": "Efecto: Hincharse (Effect: Swell)",
            "description": "<p>La criatura crece a tamaño Enorme, y su alcance aumenta a 15 pies. También gana 12 Puntos de Golpe temporales, resistencia 5 a apaleamiento y un bonificador de situación +2 a las tiradas de daño</p> <p>."
        },
        "Effect: Snake Form": {
            "name": "Efecto: Forma de Serpiente (Effect: Snake Form)",
            "description": "<p>El Golpe de cola del bunyip gana alcance 10 y @UUID[Compendium.pf2e.bestiary-ability-glossary-srd.Tkd8sH4pwFIPzqTr]{Grab}#, pero su Golpe de fauces pierde el daño persistente de sangrado.</p>"
        },
        "Effect: Defensive Assault": {
            "name": "Efecto: Asalto defensivo (Effect: Defensive Assault)",
            "description": "<p>La criatura gana un bonificador de circunstancia a la CA basado en las armas usadas para defenderse.</p>"
        },
        "Effect: Fanatical Frenzy": {
            "name": "Efecto: Frenesí fanático (Effect: Fanatical Frenzy)",
            "description": "<p>La criatura obtiene un bonificador de situación +1 a las tiradas de ataque y un bonificador de situación +2 a las tiradas de daóo, y recibe una penalización de situación -2 a la CA.</p> <p>"
        },
        "Effect: Praise Adachros": {
            "name": "Efecto: Alabar Adachros (Effect: Praise Adachros)",
            "description": "<p>La criatura gana +1 a la situación a las tiradas de ataque, chequeos de percepción, tiradas de salvación y chequeos de habilidad.</p> <p>"
        },
        "Effect: Commanding Aura (Quara)": {
            "name": "Efecto: Aura imperiosa (Quara) (Effect: Commanding Aura (Quara))",
            "description": "<p>Concedido por @UUID[Compendium.pf2e.abomination-vaults-bestiary.JrowrtDilEG8dN2s]{Quara Orshendiel}</p>\n<p>Las drow que rodean a Quara se sienten alentadas por su presencia. Sus aliados drow en el aura ganan un bonificador de situación de +1 a las tiradas de ataque y chequeos de habilidad.</p> <p>"
        },
        "Effect: Breach the Abyss - Cold": {
            "name": "Efecto: Emerger el Abismo - Frío (Effect: Breach the Abyss - Cold)",
            "description": "<p>La criatura inflige un extra de [[/r 2d6[frío]]] de daño con su arma.</p>"
        },
        "Effect: Wolf Shape": {
            "name": "Efecto: Forma de Lobo (Effect: Wolf Shape)",
            "description": "<p>El barghest gana Velocidad 40 y sus fauces ganan @UUID[Compendium.pf2e.bestiary-ability-glossary-srd.BCLvAx4Pz4MLa2pu]{Derribo}#.</p>"
        },
        "Effect: Rotting Stench": {
            "name": "Efecto: Hedor putrefacto (Effect: Rotting Stench)",
            "description": "<p>Mientras están dentro del aura, las criaturas también sufren una penalización de -2 a las salvaciones contra el miedo y para recuperarse del estado negativo (normalmente se abrevia a estado)."
        },
        "Effect: Prepare Fangs": {
            "name": "Efecto: Preparar Colmillos (Effect: Prepare Fangs)",
            "description": "<p>Las dagas infligen daño de veneno adicional igual al valor del contador.</p>"
        },
        "Effect: Unluck Aura": {
            "name": "Efecto: Aura de mala suerte (Effect: Unluck Aura)",
            "description": "<p>La criatura debe tirar dos veces y tomar el peor resultado en todos los chequeos.</p>"
        },
        "Effect: Black Cat Curse": {
            "name": "Efecto: Maldición del Gato Negro (Effect: Black Cat Curse)",
            "description": "<p><strong>Efecto</strong> Mistress Dusklight lanza una maldición pronunciada con odio a una criatura en un radio de 30 pies que ella pueda ver. Si el objetivo falla una salvación @Check[type:will|dc:32]#, siempre que haga una tirada de ataque o de salvación, debe tirar dos veces y usar el resultado más bajo. El objetivo queda temporalmente inmune durante 24 horas. La maldición persiste hasta que se elimine o el objetivo tenga éxito en una tirada de salvación posterior contra ella. La víctima puede hacer una nueva salvación @Check[type:will|dc:32] una vez por hora para acabar con la maldición.</p> <p>"
        },
        "Effect: Towering Stance (Disbelieved)": {
            "name": "Efecto: Posición de torre (No se puede creer). (Effect: Towering Stance (Disbelieved))",
            "description": "<p>La criatura se vuelve Mediana.</p>"
        },
        "Effect: Rune of Flames (Greatsword)": {
            "name": "Efecto: Runa de Flamígera (Greatsword) (Effect: Rune of Flames (Greatsword))",
            "description": "<p>El gran espadón inflige 3d6 de daño de fuego adicional en todos los ataques.</p>"
        },
        "Effect: Rockfall Critical Failure": {
            "name": "Efecto: Rockfall Fallo Crítico (Effect: Rockfall Critical Failure)",
            "description": "<p>La criatura afectada sufre una penalización de circunstancia de -20 pies a sus velocidades de movimiento durante 2 asaltos.</p> <p>"
        },
        "Effect: Chug": {
            "name": "Efecto: Chug (Effect: Chug)",
            "description": "<p>La criatura gana un bonificador +2 de objeto a los chequeos de Atletismo, tiradas de daño y tiradas de salvación contra el miedo.</p>"
        },
        "Effect: Manipulate Luck (Bad)": {
            "name": "Efecto: Manipular Suerte (Malo) (Effect: Manipulate Luck (Bad))",
            "description": "<p>La criatura debe tirar dos veces y usar el resultado más bajo en su próxima tirada d20.</p>"
        },
        "Effect: Shadow Rapier": {
            "name": "Efecto: Estoque de Sombra (Effect: Shadow Rapier)",
            "description": "<p>El rastrillo envuelve su espada en energía negativa, cambiando el tipo de daño a negativo.</p>"
        },
        "Effect: Xulgath Stench": {
            "name": "Efecto: Hedor de Xulgath (Effect: Xulgath Stench)",
            "description": "<p>La criatura sufre una situación de -5 pies de penalización a sus Velocidades.</p> <p>Efecto: Hedor pútrido."
        },
        "Effect: Curse of Frost": {
            "name": "Efecto: Maldición de Gélida (Effect: Curse of Frost)",
            "description": "<p>La criatura gana debilidad al frío 15.</p>"
        },
        "Effect: Gleaming Armor": {
            "name": "Efecto: Armadura reluciente (Effect: Gleaming Armor)",
            "description": "<p>La criatura gana un bonificador de situacièn +2 a CA y resistencia al daño de energûa basado en la criatura especûfica."
        },
        "Effect: Transfer Protection": {
            "name": "Efecto: Transferir protección. (Effect: Transfer Protection)",
            "description": "<p>La criatura gana un bonificador de situación de +1 a la CA y a las salvaciones contra criaturas malignas.</p> <p>Esta criatura tiene un bonificador de situación de +1 a la CA y a las salvaciones contra criaturas malignas."
        },
        "Effect: Tail Lash (Skill Check)": {
            "name": "Efecto: Azote con la cola (Chequeo de Habilidad) (Effect: Tail Lash (Skill Check))",
            "description": "<p>La criatura sufre un penalizador -2 de circunstancia al chequeo de habilidad desencadenante.</p>"
        },
        "Effect: Caustic Mucus": {
            "name": "Efecto: Mucosa cáustica (Effect: Caustic Mucus)",
            "description": "<p>La criatura sufre una situación de -5 pies de penalización a su Velocidad. Esta reducción de Velocidad termina con el daño persistente de ácido.</p> <p>"
        },
        "Effect: Blood Frenzy": {
            "name": "Efecto: Frenesí de Sangre (Effect: Blood Frenzy)",
            "description": "<p>La criatura gana puntos de golpe temporales y otros efectos basados en la criatura específica.</p>"
        },
        "Effect: Bloodline Magic (Stirvyn Banyan)": {
            "name": "Efecto: Magia de linaje (Stirvyn Banyan) (Effect: Bloodline Magic (Stirvyn Banyan))",
            "description": "<p>Cuando Stirvyn lanza un conjuro de linaje, un Oleaje de recuerdos ancestrales le otorga a él o a un objetivo del conjuro un bonificador de situación +1 a los chequeos de habilidad durante 1 asalto.</p> <p>Cuando Stirvyn lanza un conjuro de linaje, un Oleaje de recuerdos ancestrales le otorga a él o a un objetivo del conjuro un bonificador de situación +1 a los chequeos de habilidad durante 1 asalto.</p> <p>"
        },
        "Effect: Splintered Ground": {
            "name": "Efecto: Tierra Astillada (Effect: Splintered Ground)",
            "description": "<p>La criatura sufre una penalización de circunstancia de -10 pies a todas las Velocidades.</p>"
        },
        "Effect: Fed by Wood": {
            "name": "Efecto: Alimentado por Madera (Effect: Fed by Wood)",
            "description": "<p>El daño por fuego de las fauces de la criatura aumenta en un dado.</p>"
        },
        "Effect: Unsettling Attention": {
            "name": "Efecto: Atención Inquietante (Effect: Unsettling Attention)",
            "description": "<p><strong>Fracaso</strong> La criatura se vuelve inquieta y sufre una penalización de -2 a todas las salvaciones contra efectos de miedo mientras permanezca dentro del hexágono que contiene a Candlemere.</p>"
        },
        "Effect: Breach the Abyss - Electricity": {
            "name": "Efecto: Emerger el Abismo - Electricidad (Effect: Breach the Abyss - Electricity)",
            "description": "<p>La criatura inflige un extra de [[/r 2d6[electricidad]]] de daño con su arma.</p>"
        },
        "Effect: Scraping Clamor": {
            "name": "Efecto: Clamor Rascadura (Effect: Scraping Clamor)"
        },
        "Effect: Motivating Assault": {
            "name": "Efecto: Asalto Motivador (Effect: Motivating Assault)",
            "description": "<p>Obtienes un bonificador de situación de +1 a las tiradas de ataque, tiradas de daóo y salvaciones contra efectos de miedo.</p> <p>"
        },
        "Effect: Furious Possession": {
            "name": "Efecto: Posesión furiosa. (Effect: Furious Possession)",
            "description": "<p>La criatura gana 12 Puntos de Golpe temporales que se pierden cuando termina la posesión. Durante la posesión, la criatura tiene el aura Pulso de furia. Cada vez que la criatura poseída realiza un Golpe cuerpo a cuerpo, el espíritu puede sustituir su modificador de ataque de garra efímera, la cantidad de daño o ambos en lugar de las estadísticas propias de la criatura.</p> <p>\n<p>@UUID[Compendium.pf2e.bestiary-effects.GC5441z8i7N8swk1]{Effect: Pulso de Furia}</p>"
        },
        "Effect: Rapid Evolution - Energy Gland": {
            "name": "Efecto: Evolución Rápida - Glándula de Energía (Effect: Rapid Evolution - Energy Gland)",
            "description": "<p>La criatura gana resistencia al daño de energía similar a la del tipo desencadenante.</p> <p>Esta criatura gana resistencia al daño de energía similar a la del tipo desencadenante."
        },
        "Effect: Harrowing Misfortune": {
            "name": "Efecto: Desgracia Desgarradora (Effect: Harrowing Misfortune)",
            "description": "<p>La criatura debe tirar dos veces y tomar el resultado más bajo en su siguiente tirada de un tipo específico, determinado por el palo de la carta. Los palos y sus efectos son: Martillos (tirada de ataque cuerpo a cuerpo), Llaves (salvación de Reflejos), Escudos (salvación de Fortaleza), Libros (comprobación de habilidad), Estrellas (salvación de Voluntad) y Coronas (tirada de ataque con hechizos).</p> <p>"
        },
        "Effect: Slime Trap": {
            "name": "Efecto: Trampa de limo (Effect: Slime Trap)",
            "description": "<p>La criatura sufre una penalización de circunstancia de -10 pies a sus Velocidades.</p>"
        },
        "Effect: Bosun's Command - Attack Bonus": {
            "name": "Efecto: Orden imperiosa - Bonificación de ataque (Effect: Bosun's Command - Attack Bonus)",
            "description": "<p>La criatura obtiene un bonificador de situación de +2 a las tiradas de ataque.</p> <p>"
        },
        "Effect: Gird in Prayer": {
            "name": "Efecto: Ceñir en Oración (Effect: Gird in Prayer)",
            "description": "<p>La criatura gana un bonificador de situación de +2 a las tiradas de salvación contra efectos de muerte, mentales y de posesión.</p> <p>"
        },
        "Effect: Moon Frenzy": {
            "name": "Efecto: Frenesí lunar. (Effect: Moon Frenzy)",
            "description": "<p>La criatura aumenta un tamaño, aumenta su alcance en 1,5 metros y aumenta el daño de su Golpe de fauces (o un Golpe similar) en 2.</p>"
        }
    },
    "mapping": {
        "description": "system.description.value"
    }
}