{
    "label": "Guia del master",
    "reference": [],
    "entries": {
        "Trade Town": {
            "name": "Trade Town",
            "description": "<p>La gente pasaba con frecuencia por tu tierra natal. Podrías haberte criado cerca de una vía de comunicación o cruce de caminos superior, o en una pequeña ciudad comercial.</p> <p><strong>Pueblo comercial</strong>.\n<p>Añade Accounting Lore, Guild Lore, Mercantile Lore, Stabling Lore, y Lore de una ascendencia común (como Dwarf Lore) a tus opciones de bagaje.</p> <p>Puede que te hayas criado cerca de una gran vía pública, un cruce de caminos o una pequeña ciudad comercial."
        },
        "The Liege Lord": {
            "name": "El Señor Predilecto (The Liege Lord)",
            "description": "<p>Te hiciste íntimo de alguien a quien estabas obligado a servir, ya fuera un patrón, un señor o una señora inferior, o incluso un rey o una reina. Aunque esta persona tenía poder sobre ti, te tenía más cerca que a un súbdito o sirviente. Como resultado, estás acostumbrado a tratar con el poder y a estar cerca de él.</p> <p>Estás acostumbrado a tratar con el poder y a estar cerca de él.\n<p>Añade una mejora de característica a tus opciones de bagaje.</p> <p><strong>Carisma</strong>."
        },
        "Wasteland Survivors": {
            "name": "Wasteland Survivors",
            "description": "<p>Tú y este personaje os perdisteis juntos en un peligroso páramo y dependíais el uno del otro para sobrevivir; aún no estás seguro de que ninguno de los dos hubierais sobrevivido a la prueba sin la ayuda del otro.</p> <p>Este personaje y tú habéis sobrevivido a la prueba sin la ayuda del otro.\n<p>Añade la hazaña de habilidad @UUID[Compendium.pf2e.feats-srd.8qebBeOJsyRIchcu]{Forrajeador} a tus opciones de bagaje.</p>"
        },
        "Religious Students": {
            "name": "Estudiantes Religiosos (Religious Students)",
            "description": "<p>Tú y este personaje compartisteis alguna formación religiosa en el pasado, aunque no la mantuvisteis, y admirasteis su piedad.</p> <p>\n<p>Añade la hazaña de habilidad @UUID[Compendium.pf2e.feats-srd.x7EMZNMavris2aHY]{Alumno del canon}# a tus opciones de bagaje</p>"
        },
        "Fool": {
            "name": "Fool",
            "description": "<p>Pierdes [[/r 1d10*100 #XP]]{1d10*100 XP} a menos que elijas robar dos cartas más.</p>"
        },
        "Dullard": {
            "name": "Dullard",
            "description": "<p>Inmediatamente reduce tu puntuación de Inteligencia en [[/r {1d4+1} #Disminución de Inteligencia de Dullard]]{1d4+1}. A continuación, puedes robar una carta adicional, y la carta Dullard desaparición para siempre.<p>"
        },
        "Magician": {
            "name": "Mago (Magician)",
            "description": "<p>Este personaje apoyó tu breve devaneo con la magia escénica, que tomaste como precursor para aprender magia de verdad o simplemente para mantener tus dedos ágiles.</p> <p>Este personaje apoyó tu breve devaneo con la magia escénica, que tomaste como precursor para aprender magia de verdad o simplemente para mantener tus dedos ágiles.\n<p>Añade la hazaña de habilidad @UUID[Compendium.pf2e.feats-srd.hVZbnsDuXihggylt]{Robo sutil} a tus opciones de bagaje.</p>"
        },
        "Mercantile Expertise": {
            "name": "Pericia Mercantil (Mercantile Expertise)",
            "description": "<p>Para animar a un empleador a contratarte en lugar de a este personaje, te esforzaste en demostrar tu agudo sentido mercantil. No funcionó; el empleador contrató a este personaje de todos modos.</p> <p>\n<p>Añade la proeza de habilidad @UUID[Compendium.pf2e.feats-srd.5nc5ridFBfYpn2Om]{Bargain Hunter} a tus opciones de trasfondo.</p>"
        },
        "Raided": {
            "name": "Asaltado (Raided)",
            "description": "<p>Una horda de asaltantes ha atacado tu asentamiento y ha matado y herido a varios de los tuyos. Podría haber sido una banda de salteadores de caminos o un ejército conquistador.</p>\n<p>Tienes una reliquia de aquellos tiempos; añade una armadura o escudo por valor de 15 gp o menos a tus opciones de bagaje. Si seleccionas esta opción en lugar de una hazaña de habilidad, estás entrenado en Medicina.</p> <p>"
        },
        "The Fiend": {
            "name": "The Fiend",
            "description": "<p>Trataste con, o fuiste poseión por, un demonio que te prestó poder en un momento de gran necesidad. Una parte de él permanece en tu interior, influyendo en ti hacia fines destructivos.</p> <p>Añade la habilidad Fuerza a la habilidad Fuerza.\n<p>Añade un aumento de la habilidad Fuerza a tus opciones de bagaje</p>"
        },
        "The Mentor": {
            "name": "El Mentor (The Mentor)",
            "description": "<p>Tuviste un mentor que te enseñó todo lo que vale la pena saber sobre la vida. Podría haber sido la persona que te enseñó tus habilidades heroicas, o simplemente un alma gemela que te ayudó a formar tu visión del mundo.</p> <p>Tu mentor te enseñó todo lo que vale la pena saber sobre la vida.\n<p>Añade un aumento de habilidad de Constitución a tus opciones de bagaje.</p>"
        },
        "Social Maneuvering": {
            "name": "Maniobra Social (Social Maneuvering)",
            "description": "<p>Siempre has querido demostrar que eres mejor que este personaje en una situación social elegante, pero aún no lo has hecho con decisión.</p> <p>Siempre has querido demostrar que eres mejor que este personaje en una situación social elegante, pero aún no lo has hecho con decisión.\n<p>Añade la hazaña de habilidad @UUID[Compendium.pf2e.feats-srd.JtjnFsOToBLnSRO9]{Gracias cortesanas} a tus opciones de bagaje.</p>"
        },
        "The Wanderer": {
            "name": "The Wanderer",
            "description": "<p>Conocías a alguien que viajaba de un lugar a otro con el cambio del viento, como un juglar, mercader, proscrito, mercenario o marino. Esta persona te trajo maravillosos recuerdos e inspiró un ansia viajera en tu interior.</p> <p>Añade una Destreza a la Destreza.\n<p>Añade un potenciador de la habilidad Destreza a tus opciones de bagaje.</p> <p>Esta persona te trajo maravillosos recuerdos e inspiró tu ansia viajera.</p> <p>Añade un potenciador de la habilidad Destreza a tus opciones de bagaje."
        },
        "The Dead One": {
            "name": "El Muerto (The Dead One)",
            "description": "<p>Una de tus mayores influencias fue una criatura muerta viviente sapiente, como un fantasma, un lich, un caballero de las tumbas o un vampiro. A través de esta extraña relación, aprendiste de su vida mortal, lo que te dio perspectiva sobre tu propia vida.</p> <p>Añade una habilidad de Constitución a tu habilidad de Constitución.\n<p>Añade un aumento de habilidad de Constitución a tus opciones de bagaje.</p>"
        },
        "Knight": {
            "name": "Knight",
            "description": "<p>Llega un @UUID[Compendium.pf2e.npc-gallery.B13dyXTo1xWVyj2R]{Guardia del Palacio}## y te jura lealtad sin fisuras.</p>"
        },
        "Timely Cure": {
            "name": "Cura Oportuna (Timely Cure)",
            "description": "<p>Cuando un familiar tuyo se estaba muriendo y no parecía haber mucha esperanza, este personaje trajo una cura alquímica simple pero efectiva. Estás decidido a devolverle este favor.</p>\n<p>Añade la hazaña de habilidad @UUID[Compendium.pf2e.feats-srd.is3Oz9wt11lNq62K]{Artesanía alquímica a tus opciones de bagaje.</p> <p> <span class=\"spip\"><strong>."
        },
        "Coastal Community": {
            "name": "Comunidad costera (Coastal Community)",
            "description": "<p>Creciste a lo largo de un río ancho, en un humedal, junto a un océano o en una isla.</p> <p>Creciste a lo largo de un río ancho, en un humedal, junto a un océano o en una isla.\n<p>Añade Conocimiento de pesca, Conocimiento de navegación y Conocimiento de un tipo específico de criatura marina (como Conocimiento de tiburón) a tus opciones de bagaje</p>"
        },
        "Spy": {
            "name": "Espía (Spy)",
            "description": "<p>Espiaste a este personaje en el pasado, ya sea a instancias de otra persona o por tus propias sospechas.</p> <p>Espía a este personaje en el pasado, ya sea a instancias de otra persona o por tus propias sospechas.\n<p>Añade la hazaña de habilidad @UUID[Compendium.pf2e.feats-srd.yUuU9xyotrpwpTyC]{Leer los labios} a tus opciones de bagaje.</p>"
        },
        "Seeking Accolades": {
            "name": "Buscar Reconocimientos (Seeking Accolades)",
            "description": "<p>Nunca pareciste captar la atención de la multitud en la taberna con tanta facilidad como lo hacía este personaje, así que te esforzaste en practicar tus dotes de artista de espectáculo.</p> <p>Tú también te esforzaste en captar la atención de la multitud en la taberna con tanta facilidad como lo hacía este personaje.\n<p>Añade la hazaña de habilidad @UUID[Compendium.pf2e.feats-srd.xqAdXRd2gSQcqp5E]{Impresionante Interpretar} a tus opciones de bagaje.</p>"
        },
        "Kindly Witch": {
            "name": "Kindly Witch",
            "description": "<p>Este personaje te conectaba con una persona bondadosa pero recluida que vivía al margen de la civilización pero tenía conocimientos expansivos que compartir.</p> <p>Este personaje te conectaba con una persona bondadosa pero recluida que vivía al margen de la civilización pero tenía conocimientos expansivos que compartir.\n<p>Añade la hazaña @UUID[Compendium.pf2e.feats-srd.WC4xLBGmBsdOdHWu]{Medicina natural}# a tus opciones de bagaje.</p>"
        },
        "Comrade-in-Arms": {
            "name": "Camarada de armas (Comrade-in-Arms)",
            "description": "<p>Tú y este personaje fuisteis compañeros en el servicio militar, y os entrenasteis tú y este personaje para mejorar vuestra forma física.</p> <p>Tú y este personaje fuisteis compañeros en el servicio militar, y os entrenasteis tú y este personaje para mejorar vuestra forma física.\n<p>Añade la hazaña de habilidad @UUID[Compendium.pf2e.feats-srd.W6Gl9ePmItfDHji0]{Seguro}# para Atletismo a tus opciones de bagaje</p>"
        },
        "Fell In with a Bad Crowd": {
            "name": "Fell In with a Bad Crowd",
            "description": "<p>En tu juventud, anduviste con algún elemento delincuente: una banda, un gremio de ladrones o una organización similar.</p> <p>En tu juventud, anduviste con algún elemento delincuente: una banda, un gremio de ladrones o una organización similar.</p> <p>En tu juventud, anduviste con algún elemento delincuente: una banda, un gremio de ladrones o una organización similar.\n<p>Añade la hazaña de habilidad @UUID[Compendium.pf2e.feats-srd.t3btih0O5RUwWynt]{Contrabandista experto} a tus opciones de bagaje.</p>"
        },
        "Rogue": {
            "name": "Rogue",
            "description": "<p>Un PNJ aliado se llena de odio e inmediatamente se vuelve contra ti para siempre. El PNJ podría mantener este odio en secreto hasta un momento oportuno.</p> <p"
        },
        "Itinerant": {
            "name": "Itinerante (Itinerant)",
            "description": "<p>Nunca tuviste un solo lugar al que llamar hogar. Puede que hayas formado parte de una caravana nómada, de un grupo itinerante de animadores o de una red de contrabando.</p> <p><strong>Circo itinerante</strong>.\n<p>Agrega Circus Lore, Fortune-Telling Lore, Games Lore, Labor Lore, y Underworld Lore a tus opciones de bagaje.</p> <p>Saber (juegos de azar), Saber (bajos fondos), Saber (juegos de azar) y Saber (bajos fondos)."
        },
        "Captured by Giants": {
            "name": "Capturado por Gigantes (Captured by Giants)",
            "description": "<p>Fuiste capturado por gigantes merodeadores y luchaste para liberarte.</p>\n<p>Añade la hazaña de habilidad @UUID[Compendium.pf2e.feats-srd.KxaYlC50zzHysJj8]{Luchador titánico} a tus opciones de bagaje</p>"
        },
        "Attained a Magical Gift": {
            "name": "Obtuviste un Don Mágico (Attained a Magical Gift)",
            "description": "<p>Cuando eras niño, encontraste, robaste o te dieron un objeto mágico que te otorgó una habilidad extraordinaria.</p>\n<p>Añade la proeza de habilidad @UUID[Compendium.pf2e.feats-srd.blMeVamjGz4ODWxq]{Sentidos arcanos} a tus opciones de bagaje.</p>"
        },
        "Had Your First Kill": {
            "name": "Had Your First Kill",
            "description": "<p>Tienes las manos manchadas de sangre desde tu juventud, cuando acabaste por primera vez con la vida de otro. Todavía tienes el arma que usaste para el acto; añade un arma Común que valga 15 gp o menos a tus opciones de bagaje. Si seleccionas esta opción en lugar de una proeza de habilidad, estás entrenado en Atletismo.</p> <p>"
        },
        "Liberators": {
            "name": "Liberadores (Liberators)",
            "description": "<p>Tú y este personaje trabajasteis juntos para liberar a unos cautivos -incluido uno de tus amigos o familiares- de una banda de esclavistas.</p> <p>Tú y este personaje trabajasteis juntos para liberar a unos cautivos -incluido uno de tus amigos o familiares- de una banda de esclavistas.\n<p>Añade la hazaña de habilidad @UUID[Compendium.pf2e.feats-srd.HEBXaS656MZTiWFu]{Distracción extensa a tus opciones de bagaje.</p>"
        },
        "The Void": {
            "name": "El Vacío (The Void)",
            "description": "<p>Tu mente queda atrapada para siempre. Esta carta es caprichosa, pero a menudo arroja a la psique a una presa en un objeto en un plano o planeta distante. <em>@UUID[Compendium.pf2e.spells-srd.6dDtGIUerazSHIOu]{Deseo}</em> o magia poderosa similar puede revelar la localización de tu psique, pero no te trae de vuelta. Tu cuerpo comatoso sigue funcionando. Deja de robar cartas.</p>"
        },
        "Gem": {
            "name": "Gema (Gem)",
            "description": "<p>Obtén 25 piezas de joyería por valor de 200 gp cada una o 50 gemas por valor de 100 gp cada una.</p>"
        },
        "Throne": {
            "name": "Trono (Throne)",
            "description": "<p>Ganas un bonificador permanente de situación +4 a los chequeos de Diplomacia, y ahora posees un pequeóo castillo en cualquier zona abierta que desees. Debes elegir su ubicación en el plazo de 1 hora.</p> <p>\n<p>@UUID[Compendium.pf2e.equipment-effects.Zb8RYgmzCI6fQE0o]{Effect: Carta Trono}</p>"
        },
        "Matter of Might": {
            "name": "Cuestión de poder (Matter of Might)",
            "description": "<p>Hace tiempo que consideras a este personaje tu rival en cuestión de fuerza. Estás decidido a demostrar que eres más poderoso, tal vez mediante la aplicación inteligente de la fuerza si no eres físicamente imponente.</p> <p>\n<p>Añade la proeza de habilidad @UUID[Compendium.pf2e.feats-srd.C0Tcelg3BAPhML6J]{Porteador recio} a tus opciones de bagaje.</p> <p>"
        },
        "The Lover": {
            "name": "El Amante (The Lover)",
            "description": "<p>Tuviste una conexión romántica en tu pasado, y esta persona influyó profundamente en tu personalidad. Tal vez se tratara de un primer amor, una pareja ocasional a la que te acercaste o la que se te escapó. La experiencia reforzó tu confianza en las interacciones románticas, aunque tus pensamientos aún se desvían hacia esa persona especial de hace mucho tiempo.</p> <p>Añade un Carisma a tu personalidad.\n<p>Añade un aumento de la habilidad Carisma a tus opciones de bagaje</p>"
        },
        "The Pariah": {
            "name": "El Paria (The Pariah)",
            "description": "<p>Te encontraste con un exiliado caído en desgracia y hallaste en sus palabras algo que te hablaba. Lo que antes parecía cierto en tu religión, Sociedad o familia empezó a parecer falso, y rápidamente aprendiste a no fiarte de todo el mundo que conocieras.</p> <p>Añade Sabiduría a tu vida.\n<p>Añade un potenciador de la habilidad Sabiduría a tus opciones de bagaje.</p>"
        },
        "Comet": {
            "name": "Cometa (Comet)",
            "description": "<p>Si derrotas tú solo al siguiente enemigo o enemigos hostiles de baja amenaza o más difíciles que encuentres, ganas suficiente XP para alcanzar el siguiente nivel. De lo contrario, no obtienes ningún beneficio.</p>"
        },
        "Euryale (curse)": {
            "name": "Euryale (maldición) (Euryale (curse))",
            "description": "<p>La imagen de una medusa te maldice con una penalización de situación permanente de -1 a todas las tiradas de salvación. Sólo puede eliminarla una deidad o @UUID[Compendium.pf2e.equipment-effects.8ersuvNJXX00XaIQ]{Effect: Euryale (Maldición) Card}</p>"
        },
        "Academy Trained": {
            "name": "Entrenado en la Academia (Academy Trained)",
            "description": "<p>Asististe a una academia donde estudiaste una serie de temas y habilidades. Tanto si fuiste un alumno estudioso como si abandonaste los estudios, la academia fue tu hogar durante buena parte de tus años de formación.</p> <p>\n<p>Añade la proeza de habilidad @UUID[Compendium.pf2e.feats-srd.BocFD2KV0qgUC76x]{Additional Lore} a tus opciones de bagaje. Si seleccionas Lore adicional como tu proeza de habilidad, en lugar de ser entrenado en Lore, serás entrenado en Arcanos, Ocultismo o Sociedad a tu elección.</p> <p>Si seleccionas Lore adicional como tu proeza de habilidad, en lugar de ser entrenado en Lore, serás entrenado en Arcanos, Ocultismo o Sociedad a tu elección.</p> <p>Si seleccionas Lore adicional como tu proeza de habilidad, en lugar de ser entrenado en Lore, serás entrenado en Arcanos, Ocultismo o Sociedad a tu elección."
        },
        "The Hunter": {
            "name": "El Cazador (The Hunter)",
            "description": "<p>Esta persona era un lobo solitario que cautelosamente te permitió convertirte en miembro de su manada solitaria. Te enseñaron a mantenerte rápido y a prosperar por ti mismo a pesar de los peligros naturales.</p> <p>Añade una Destreza y un Poder a la manada.\n<p>Añade un potenciador de la habilidad Destreza a tus opciones de bagaje.</p>"
        },
        "Religious Community": {
            "name": "Comunidad religiosa (Religious Community)",
            "description": "<p>Te criaste en una comunidad de eruditos religiosos, como el pueblo que rodea una abadía, un remoto santuario del bosque élfico o una ciudad-templo enana.</p> <p>Te criaste en una comunidad de eruditos religiosos, como el pueblo que rodea una abadía, un remoto santuario del bosque élfico o una ciudad-templo enana.\n<p>Agrega Art Lore, Scribing Lore, Lore acerca de una deidad que fue el foco o enemigo de tu comunidad (como Pharasma Lore), y Lore acerca de un plano (que no sea el Plano Material) donde esa deidad reside a tus opciones de bagaje.</p>"
        },
        "Privileged Position": {
            "name": "Posición privilegiada (Privileged Position)",
            "description": "<p>Una vez buscaste el favor de un poderoso hechicero como mentor, pero este personaje era a todas luces el favorito del mentor, por mucho que lo intentaras.</p> <p>Este es tu personaje favorito.\n<p>Añade la hazaña de habilidad @UUID[Compendium.pf2e.feats-srd.IlOQuCQIhjJpig3S]{Identificación rápida} a tus opciones de bagaje.</p>"
        },
        "Died": {
            "name": "Murió (Died)",
            "description": "<p>Moriste o estuviste tan cerca de hacerlo que caminaste por la frontera entre la vida y la muerte.</p> <p>Moriste o estuviste tan cerca de hacerlo que caminaste por la frontera entre la vida y la muerte.\n<p>Añade la gesta @UUID[Compendium.pf2e.feats-srd.I0BhPWqYf1bbzEYg]{Duro de pelar}# a tus opciones de bagaje. Si la seleccionas en lugar de una proeza de habilidad, no estarás entrenado en una habilidad de trasfondo.</p> <p><strong>Difícil</strong>."
        },
        "Rival Trackers": {
            "name": "Rastreadores rivales (Rival Trackers)",
            "description": "<p>Tú y este personaje trabajasteis durante un tiempo como cazadores rivales, ya fuera rastreando animales o delincuentes fugados.</p> <p>Tú y este personaje trabajasteis durante un tiempo como cazadores rivales, ya fuera rastreando animales o delincuentes fugados.</p> <p>Tú y este personaje trabajasteis durante un tiempo como cazadores rivales, ya fuera rastreando animales o delincuentes fugados.\n<p>Añade la hazaña de habilidad @UUID[Compendium.pf2e.feats-srd.urQZwmzg2kS53vd5]{Experienced Tracker} a tus opciones de bagaje.</p>"
        },
        "Cosmopolitan City": {
            "name": "Ciudad Cosmopolita (Cosmopolitan City)",
            "description": "<p>Te criaste en una comunidad en la que no predominaba una sola ascendencia. Esto podría haber creado tensiones, pero la comunidad también podría haberse unido a partir de diversos fundamentos.</p> <p>\n<p>Agrega Art Lore, Guild Lore, Legal Lore, y Underworld Lore a tus opciones de bagaje</p>"
        },
        "Accidental Fall": {
            "name": "Accidental Fall",
            "description": "<p>Este personaje te empujó una vez sin querer desde una cornisa o balcón. Estás casi seguro de que fue un error, pero la caída fue aterradora, y has resuelto que nunca te volverán a pillar desprevenido de esa manera.</p> <p><strong><strong></strong></strong></p> <p class=\"##2cdde984cfc3ed33b93\">.\n<p>Añade la hazaña de habilidad @UUID[Compendium.pf2e.feats-srd.LQw0yIMDUJJkq1nD]{Caída de gato} a tus opciones de bagaje.</p> <p>"
        },
        "Robbed": {
            "name": "Robado (Robbed)",
            "description": "<p>Tu familia ha sufrido un robo de posesión y te has jurado atrapar al prﾃｳximo ladrﾃｳn in fraganti. Añade la proeza de habilidad @UUID[Compendium.pf2e.feats-srd.DMetdzt1VJL2Y62i]{Snare Artesanía} a tus opciones de bagaje.</p> <p>"
        },
        "Vizier": {
            "name": "Visir (Vizier)",
            "description": "<p>Si lo pides, puedes aprender la solución a cualquier problema o la respuesta correcta a cualquier pregunta, a menos que esa información esté oculta por una deidad. Esto no necesariamente te da los medios para actuar sobre esa solución. Tienes 1 año para tomar el consejo del visir o perder sus beneficios.</p> <p>"
        },
        "Claimed an Inheritance": {
            "name": "Reclamó una herencia (Claimed an Inheritance)",
            "description": "<p>Te legaron grandes riquezas o propiedades a una edad temprana. Conservaste parte de ella; añade una pieza de equipo de aventurero Común por valor de 15 gp o menos a tus opciones de bagaje. Si lo seleccionas en lugar de una hazaña de habilidad, estás entrenado en Sociedad.</p> <p><strong>Educación en Sociedad</strong>."
        },
        "Metropolis": {
            "name": "Metrópolis (Metropolis)",
            "description": "<p>Creciste en una de las ciudades más grandes del mundo, como Absalom o Westcrown.</p> <p>Creciste en una de las ciudades más grandes del mundo, como Absalom o Westcrown.\n<p>Agrega Architecture Lore, Gladiatorial Lore, Guild Lore, Legal Lore y Theater Lore a tus opciones de bagaje</p>"
        },
        "Star": {
            "name": "Star",
            "description": "<p>Gana una mejora de habilidad que debes usar inmediatamente en una puntuación de habilidad de tu elección.</p>"
        },
        "Slander": {
            "name": "Calumnia (Slander)",
            "description": "<p>Tú y este personaje eran rivales por el afecto de la misma persona, y te rebajaste a difundir viles mentiras antes de que toda la situación se viniera abajo.</p> <p>Tú y este personaje eran rivales por el afecto de la misma persona, y te rebajaste a difundir viles mentiras antes de que toda la situación se viniera abajo.\n<p>Añade la proeza de habilidad @UUID[Compendium.pf2e.feats-srd.B6HbYsLBWb1RR6Fx]{Mentiroso encantador} a tus opciones de bagaje.</p>"
        },
        "Trained by a Mentor": {
            "name": "Entrenado por un Mentor (Trained by a Mentor)",
            "description": "<p>Un mentor o mecenas se interesó por tu desarrollo y se ofreció voluntario para formarte o apadrinarte</p> <p>.\n<p>Añade la proeza de habilidad @UUID[Compendium.pf2e.feats-srd.sMm0UfYxEPpq2Yzd]{Experienced Professional} a tus opciones de bagaje.</p>"
        },
        "The Academic": {
            "name": "The Academic",
            "description": "<p>Uno de tus socios tenía una sed de conocimiento que nunca podía satisfacerse con respuestas sencillas. A través de esta asociación, desarrollaste un gran aprecio por los números, la geometría, la lógica, el estudio duro y la resolución de problemas.</p> <p>\n<p>Añade una mejora de característica de Inteligencia a tus opciones de bagaje</p> <p>."
        },
        "Ruin": {
            "name": "Ruin",
            "description": "<p>Pierdes todas tus posesión no mágicas, incluyendo cualquier riqueza y propiedad.</p> <p>Pierdes todas tus posesión no mágicas, incluyendo cualquier riqueza y propiedad."
        },
        "Betrayed": {
            "name": "Betrayed",
            "description": "<p>Un amigo o familiar en el que confiabas más que en nadie te ha traicionado.</p> <p>Traicionado por un amigo o familiar en el que confiabas más que en nadie.\n<p>Añade la hazaña de habilidad @UUID[Compendium.pf2e.feats-srd.Dvz54d6aPhjsmUux]{Mentirme} a tus opciones de bagaje.</p>"
        },
        "Called Before Judges": {
            "name": "Llamada ante los jueces (Called Before Judges)",
            "description": "<p>La información proporcionada por este personaje -ya sea de forma intencionada o por descuido- te obligó a justificarte ante un grupo de burócratas o magistrados.</p> <p>Añadir ##################.\n<p>Añade la hazaña de habilidad @UUID[Compendium.pf2e.feats-srd.KpFetnUqTiweypZk]{Impresión de grupo} a tus opciones de bagaje.</p>"
        },
        "Homelessness": {
            "name": "Homelessness",
            "description": "<p>En una época en la que ambos vivíais en la calle, le enseñaste a este personaje valiosos consejos para sobrevivir.</p>\n<p>Añade la hazaña de habilidad @UUID[Compendium.pf2e.feats-srd.X2jGFfLU5qI5XVot]{Callejeo} a tus opciones de bagaje</p>"
        },
        "The Boss": {
            "name": "The Boss",
            "description": "<p>Una vez trabajaste para una persona poderosa con una gran influencia. Cuando el jefe hablaba, todo el mundo le escuchaba. Podía tratarse de un comandante militar, el líder de un pueblo, el jefe de un gremio o el jefe de una banda. Del jefe, aprendiste a hacer que la gente te escuchara y a mantenerlos a raya.</p> <p>Añade Carisma a tu trabajo.\n<p>Añade un aumento de la habilidad Carisma a tus opciones de bagaje</p> <p>."
        },
        "Underground": {
            "name": "Underground",
            "description": "<p>Creciste en una región parcial o totalmente subterránea, como un poblado minero humano, una madriguera goblin o una caverna controlada por enanos.</p> <p>Añade Ingeniería Lore a tus conocimientos de ingeniería.\n<p>Añade conocimientos de ingeniería, conocimientos laborales y conocimientos de minería a tus opciones de bagaje.</p> <p>Tu bagaje es el siguiente"
        },
        "The Confidante": {
            "name": "El Confidente (The Confidante)",
            "description": "<p>A esta persona le puedes contar cualquier cosa. Conocen tus secretos y vulnerabilidades más profundos igual que tú conoces los suyos, y pensar de forma crítica sobre la perspectiva de otra persona se convirtió en algo natural para ti.</p> <p>Añadir la habilidad Inteligencia.\n<p>Añade un potenciador de la habilidad Inteligencia a tus opciones de bagaje.</p>"
        },
        "Desperate Intimidation": {
            "name": "Intimidación Desesperada (Desperate Intimidation)",
            "description": "<p>Tuviste que asustar a piratas o esclavistas que buscaban capturaros a ti y a este personaje.</p> <p>Tuviste que asustar a piratas o esclavistas que buscaban capturarte a ti y a este personaje.\n<p>Añade la hazaña de habilidad @UUID[Compendium.pf2e.feats-srd.gUqvezs2zzoTXFAI]{Intimidación de grupo} a tus opciones de bagaje.</p>"
        },
        "The Champion": {
            "name": "El Campeón (The Champion)",
            "description": "<p>Estabas cerca de alguien que destacaba en esfuerzos atléticos y pruebas de fuerza o habilidad. A través de vuestra amistad o rivalidad, desarrollaste un espíritu competitivo que te sigue impulsando en todo lo que haces.</p> <p>Por lo tanto, te sientes muy orgulloso de ti mismo.\n<p>Añade un potenciador de la habilidad Fuerza a tus opciones de bagaje.</p>"
        },
        "Relationship Ender": {
            "name": "Relationship Ender",
            "description": "<p>Una vez advertiste a un admirador que buscaba el afecto de este personaje. Todavía mantienes que el encuentro no habría sido bueno y que le hiciste un favor a este personaje.</p> <p>Añade ###############.\n<p>Añade la proeza de habilidad @UUID[Compendium.pf2e.feats-srd.ar2DUlvDK4LDcH9J]{Intimidación rápida a tus opciones de bagaje.</p>"
        },
        "Accusation of Theft": {
            "name": "Acusación de Robo (Accusation of Theft)",
            "description": "<p>Una vez estuviste secretamente seguro de que este personaje te robó un preciado objeto de valor. Estabas decidido a volver a robarlo, hasta que te enteraste de que, en realidad, este personaje no era el culpable y que tú sólo habías extraviado el objeto.</p> <p>Estabas decidido a volver a robarlo, hasta que te enteraste de que, en realidad, este personaje no era el culpable y tú sólo habías extraviado el objeto.\n<p>Añade la hazaña de habilidad @UUID[Compendium.pf2e.feats-srd.jDdOqFmZLwE4dblQ]{Carterista} a tus opciones de bagaje.</p>"
        },
        "Key": {
            "name": "Clave (Key)",
            "description": "<p>Gana un arma mágica de nivel 12 o superior. El GM determina el objeto y que runas tiene, si las tiene.</p>"
        },
        "Bullied": {
            "name": "Acosado (Bullied)",
            "description": "<p>En tus primeros años de vida, a menudo se metían contigo. La crueldad de los matones agudizó tu resolución de ponerte de pie por ti mismo y por los demós.\n<p>Añade la hazaña de habilidad @UUID[Compendium.pf2e.feats-srd.xQMz6eDgX75WX2ce]{Mirada intimidante} a tus opciones de bagaje</p>"
        },
        "Jester": {
            "name": "Jester",
            "description": "<p>Puedes robar dos cartas más o ganar [[/r 1d10*100 #XP]]{1d10*100 XP}. A continuación, la carta desaparición para siempre.</p> <p>"
        },
        "Talons": {
            "name": "Talons",
            "description": "<p>Todos tus objetos mágicos desaparición permanentemente, excepto el mazo y cualquier artefacto de nivel superior al mazo.</p> <p>"
        },
        "Skull": {
            "name": "Cráneo (Skull)",
            "description": "<p>Debes combatir inmediatamente contra un @UUID[Compendium.pf2e.pathfinder-bestiary.pkNWilK2pHZ5TDsd]{Muerte menor}#. Si mueres en la batalla, nunca puedes ser reanimado, excepto por una deidad.</p> <p>"
        },
        "The Crafter": {
            "name": "El Artesano (The Crafter)",
            "description": "<p>Una de tus influencias superiores apreciaba la perfección a través del arte. A partir de esta persona, desarrollaste una mente disciplinada, un enfoque solitario y la habilidad de Elaborar algo útil y bello.</p> <p><strong>Añadir una habilidad de Inteligencia</strong>.\n<p>Añade una mejora de característica de Inteligencia a tus opciones de bagaje</p> <p>."
        },
        "Lost in the Wilderness": {
            "name": "Perdido en las tierras vírgenes (Lost in the Wilderness)",
            "description": "<p>Atraído a las tierras vírgenes por una fuerza malévola o simplemente perdido, tuviste que sobrevivir por tu cuenta durante un tiempo. Añade la proeza de habilidad @UUID[Compendium.pf2e.feats-srd.tGIXuk0XeWmG04CX]{Survey Wildlife} a tus opciones de bagaje.</p> <p>"
        },
        "Animal Helpers": {
            "name": "Ayudantes Animales (Animal Helpers)",
            "description": "<p>Cuando tú y este personaje erais más jóvenes, trabajabais al unísono para cuidar a animales enfermos y devolverles la salud.</p> <p>Cuando tú y este personaje erais más jóvenes, trabajabais al unísono para cuidar a animales enfermos y devolverles la salud.\n<p>Añade la proeza de habilidad @UUID[Compendium.pf2e.feats-srd.nowEaHgIyij7im8F]{Adiestrar animal} a tus opciones de bagaje</p>"
        },
        "Met a Fantastic Creature": {
            "name": "Met a Fantastic Creature",
            "description": "<p>Cuando eras niño, entraste en contacto con una criatura mágica, como un dragón, un unicornio, un genio, un duendecillo o una criatura similar.</p> <p>Añade ##################.\n<p>Añade la proeza de habilidad @UUID[Compendium.pf2e.feats-srd.MjQyTcV8Jiv1Jtln]{Reconocer conjuro}# a tus opciones de bagaje.</p>"
        },
        "Sun": {
            "name": "Sun",
            "description": "<p>Gana 1000 XP y un beneficioso objeto mágico permanente de 6º a 11º nivel, elegido por el GM.</p>"
        },
        "Balance": {
            "name": "Mantener equilibrio (Balance)",
            "description": "<p>Tu alineación cambia a una radicalmente diferente. Si fallas en adherirte a ese alineamiento, pierdes un nivel y todos los beneficios que ganaste en ese nivel. Tu total de XP no cambia cuando pierdes un nivel de esta manera.</p> <p>"
        },
        "The Mercenary": {
            "name": "El Mercenario (The Mercenary)",
            "description": "<p>Con esta persona, siempre había un coste. Ninguna acción venía sin un intercambio por algo de igual o mayor valor. Respetabas sus tratos cínicos pero justos, e influyeron en tu filosofía.</p> <p>Añade la habilidad Fuerza a la habilidad Fuerza.\n<p>Añade un aumento de la habilidad Fuerza a tus opciones de bagaje</p>"
        },
        "Donjon": {
            "name": "Donjon",
            "description": "<p>Estás cautiverio por un ritual <em>@UUID[Compendium.pf2e.spells-srd.2CNqkt2s2IYkVnv6]{Imprisonment}</em> de 10º nivel. Utiliza la opción de preso, que normalmente te secuestra en una parte lejana del mundo. También pierdes todos tus objetos. Deja de robar cartas.</p>"
        },
        "Won a Competition": {
            "name": "Gana una Competición (Won a Competition)",
            "description": "<p>Te distinguiste a una edad temprana cuando ganaste una competición. Esto podría haber sido un concurso marcial de armas, una exhibición de aprendices de mago, apuestas de alto riesgo, o algo más mundano, como un concurso de comer.</p> <p>Tú te distinguiste a una edad temprana cuando ganaste una competición.\n<p>Añade la proeza de habilidad @UUID[Compendium.pf2e.feats-srd.7LB00jkh6JaJr3vS]{Interpretación fascinante} a tus opciones de bagaje.</p> <p>"
        },
        "Missing Child": {
            "name": "Niño Desaparecido (Missing Child)",
            "description": "<p>Cuando un joven pariente desapareción en un concurrido mercado, este personaje te ayudaba a interrogar a mercaderes y compradores y a encontrar al nióo antes de que sufriera daños.</p> <p>\n<p>Añade la hazaña de habilidad @UUID[Compendium.pf2e.feats-srd.4RjDxgvNXNl5GG9d]{Confraternizador} a tus opciones de bagaje.</p>"
        },
        "Moon": {
            "name": "Luna (Moon)",
            "description": "<p>Tira [[/r {1d4} #Deseos]]{1d4} para determinar cuántos deseos te concede la carta, lo que también afecta a la fase de la luna representada en la carta (1: luna creciente; 2: media luna; 3: luna gibosa; 4: luna llena). Cada uno de estos deseos tarda una acción en pronunciarse y tienen el efecto de un hechizo <em>@UUID[Compendium.pf2e.spells-srd.6dDtGIUerazSHIOu]{Deseo}</em>.</p> <p>"
        },
        "The Relative": {
            "name": "El Relativo (The Relative)",
            "description": "<p>Estabas especialmente unido a un pariente específico mientras crecías. Para ti, esa persona era el significado de la familia. Te ayudaron a llegar a la edad adulta y te enseñaron todo lo que sabes sobre el mundo. Te esfuerzas por cumplir una promesa, un voto o un Juramento que les hiciste.\n<p>Añade un aumento de la habilidad Constitución a tus opciones de bagaje.</p>"
        },
        "Frontier": {
            "name": "Frontera (Frontier)",
            "description": "<p>Creciste en el borde de una región poblada. Esto podría haber sido colinas aisladas si eres un enano, un rancho o granja si eres un humano, u otra frontera similar.</p> <p><strong>Tú creciste en el borde de una región poblada</strong>.\n<p>Añade Saber de agricultura, Saber de pesca, Saber de caza, Saber de explorador y Saber perteneciente a un tipo de criatura que amenazara tu tierra natal con regularidad (como Saber de gigante) a tus opciones de bagaje</p> <p>."
        },
        "The Mystic": {
            "name": "El Místico (The Mystic)",
            "description": "<p>Estuviste especialmente cerca de una persona sagrada de tu comunidad que cambió fundamentalmente tu vida, abriéndote los ojos a los increíbles poderes que existen más allá del mundo natural. Independientemente de si ahora sigues o no una fe, ciertos artefactos, rituales y textos religiosos desempeñaron un papel importante en que te convirtieras en la persona que eres.</p> <p>Añade un atributo de Sabiduría a tu vida.\n<p>Añade un potenciador de la habilidad Sabiduría a tus opciones de bagaje.</p> <p><strong>Sabiduría</strong>."
        },
        "Witnessed War": {
            "name": "Testigo de guerra (Witnessed War)",
            "description": "<p>Creciste con el telón de fondo de un conflicto bélico superior que afectó a gran parte del mundo de tu infancia.</p> <p>Creciste con el telón de fondo de un conflicto bélico superior que afectó a gran parte del mundo de tu infancia.\n<p>Añade la proeza de habilidad @UUID[Compendium.pf2e.feats-srd.wYerMk6F1RZb0Fwt]{Medicina de batalla} a tus opciones de bagaje.</p>"
        },
        "The Well-Connected": {
            "name": "El Bien Conectado (The Well-Connected)",
            "description": "<p>Amigo En tu círculo de asociados, había alguien a quien todo el mundo conocía. Esta persona tenía contactos en todos los círculos sociales. A través de esta conexión, sigues conociendo y asociándote con una gran variedad de personas en todos los ámbitos de la vida.</p> <p>Añadir un Carisma.\n<p>Añade un aumento de la habilidad Carisma a tus opciones de bagaje.</p>"
        },
        "Flames": {
            "name": "Flamígera (Flames)",
            "description": "<p>Un demonio se llena de ira, celos, envidia o alguna otra razón para despreciarte. Su odio hacia ti no cesará hasta que él o tú estéis muertos. Te ataca o hace cualquier otro intento para acabar contigo en un plazo de [[/r 1d20 #días]]{1d20 días}. El GM determina los detalles específicos del demonio.</p> <p>"
        },
        "The Criminal": {
            "name": "El delincuente (The Criminal)",
            "description": "<p>El delincuente Uno de tus socios cometía delitos con regularidad. Te contaban muchas historias de atrevidos robos y allanamientos, tal vez incluso asesinatos. De este amigo aprendiste todo lo que sabes sobre los delincuentes.\n<p>Añade una mejora de habilidad Destreza a tus opciones de bagaje</p>"
        },
        "The Fates": {
            "name": "Las Parcas (The Fates)",
            "description": "<p>Los Destinos vuelven a girar el tejido de la realidad para salvarte de cualquier situación que elijas. Esto puede revertir incluso un evento pasado, y puedes tomar la decisión instantáneamente incluso si el evento te mataría. Esta intervención sólo te salva a ti, no a nadie más afectado por el suceso. No hay límite en el tiempo que puedes esperar antes de usar este efecto.</p> <p>"
        },
        "Survived a Disaster": {
            "name": "Supervivencia a una catástrofe (Survived a Disaster)",
            "description": "<p>Presenciaste y sobreviviste a una catástrofe superior en los años de tu infancia -como un gran incendio, una inundación, un terremoto, un volcán o una tormenta- confiando en lo que tenías a mano.</p> <p><strong>Sobreviviste a una catástrofe</strong>.\n<p>Añade la proeza de habilidad @UUID[Compendium.pf2e.feats-srd.ASy9AKEIRxPYUi5o]{Reparación rápida a tus opciones de bagaje.</p> <p>"
        },
        "Had an Ordinary Childhood": {
            "name": "Tuvo una infancia ordinaria (Had an Ordinary Childhood)",
            "description": "<p>Tu infancia fue bastante corriente, sin ninguna catástrofe superior-un marcado contraste con la mayoría de aventureros.</p> <p>\n<p>Añade la hazaña @UUID[Compendium.pf2e.feats-srd.W6Gl9ePmItfDHji0]{Seguro} para una habilidad de tu elección a tus opciones de bagaje</p>"
        },
        "The Fool": {
            "name": "El Loco (The Fool)",
            "description": "<p>Uno de tus allegados se burlaba del decoro y las costumbres, realizando acciones salvajes y un tanto aleatorias de vez en cuando. Al cabo de un tiempo, aprendiste que había una simple sabiduría en esta tontería: una visión descuidada del mundo que te enseñó a desechar la preocupación.</p> <p><strong>Añadir Sabiduría</strong>.\n<p>Añade un potenciador de la habilidad Sabiduría a tus opciones de bagaje.</p> <p><strong>Sabiduría</strong>."
        },
        "Kidnapped": {
            "name": "Secuestrado (Kidnapped)",
            "description": "<p>Fuiste secuestrado en algún momento de tu infancia y tuviste que huir, tal vez por piratas, esclavistas, una secta u otra persona.</p> <p>Secuestrado en algún momento de tu infancia y tuviste que huir, tal vez por piratas, esclavistas, una secta u otra persona.\n<p>Añade la hazaña de habilidad @UUID[Compendium.pf2e.feats-srd.3G8xUlgCjRmRJNfP]{Quick Escurrirse} a tus opciones de bagaje.</p>"
        },
        "Front Lines": {
            "name": "Front Lines",
            "description": "<p>Creciste en una patria desgarrada por la guerra. Aunque no participaras personalmente, nunca estuvo muy lejos.</p> <p>Añade Heráldica, Heráldica, Heráldica y Heráldica.\n<p>Añade Heraldry Lore, Saber de la exploración y Saber de la guerra a tus opciones de bagaje.</p> <p>También puedes añadir Heraldry Lore, Saber de la exploración y Saber de la guerra a tus opciones de bagaje."
        },
        "Abandoned in a Distant Land": {
            "name": "Abandonado en una tierra lejana (Abandoned in a Distant Land)",
            "description": "<p>Debido a algún infortunio (como deambular durante un viaje o ser enganchado a presión en un barco de navegación marítima), has tenido que sobrevivir en una tierra lejana durante un tiempo.</p> <p>Debido a algún infortunio (como deambular durante un viaje o ser enganchado a presión en un barco de navegación marítima), has tenido que sobrevivir en una tierra lejana durante un tiempo.\n<p>Añade la hazaña de habilidad @UUID[Compendium.pf2e.feats-srd.P9HCz0uR6xPHuw72]{Multilingüe} a tus opciones de bagaje</p> <p>."
        },
        "The Seer": {
            "name": "El Vidente (The Seer)",
            "description": "<p>Estabas cerca de una persona que afirmaba ver el futuro -quizá un oráculo, vidente, profeta, o simplemente algún charlatán de festivales. La influencia del vidente te convirtió o bien en un optimista con ganas de cumplir ese futuro o bien en un fatalista resignado a aceptarlo.</p> <p>Añade Sabiduría a tu vida.\n<p>Añade un potenciador de la habilidad Sabiduría a tus opciones de bagaje.</p> <p><strong>Sabiduría</strong>."
        },
        "Another Ancestry's Settlement": {
            "name": "Asentamiento de otra ascendencia (Another Ancestry's Settlement)",
            "description": "<p>Determina al azar otra ascendencia común; creciste rodeado de esa ascendencia. Vuelve a tirar en esta tabla (con un modificador por la nueva ascendencia, si procede) para determinar el tipo de comunidad en la que creciste (por ejemplo, si tu gnomo creció entre enanos y saca un 3, crecieron bajo tierra).</p>\n<p>Añade la hazaña @UUID[Compendium.pf2e.feats-srd.ihN8gkHSdPG9Trte]{Adopted Ancestry} y la habilidad de Lore relacionada con tu Ascendencia adoptada (como Dwarf Lore) a tus opciones de bagaje. Si seleccionas esta hazaña en lugar de una hazaña de habilidad, no estás entrenado en una habilidad de trasfondo.</p> <p> </p> <p>Si seleccionas esta hazaña en lugar de una hazaña de habilidad, no estás entrenado en una habilidad de trasfondo."
        },
        "Academic Community": {
            "name": "Comunidad Académica (Academic Community)",
            "description": "<p>Te criaste en o cerca de una universidad, academia u otro centro de aprendizaje.</p> <p>Te criaste en o cerca de una universidad, academia u otro centro de aprendizaje.\n<p>Añade Academia Lore, Genealogy Lore, Library Lore y Scribing Lore a las opciones de tu bagaje.</p> <p>Eres una persona que ha crecido cerca de una academia u otro centro de aprendizaje."
        },
        "Simple Village": {
            "name": "Simple Village",
            "description": "<p>Te criaste en una aldea soñolienta, como una bucólica aldea gnoma, un pueblo humano muy unido o un fuerte goblin establecido.</p> <p>Te criaste en una aldea soñolienta, como una bucólica aldea gnoma, un pueblo humano muy unido o un fuerte goblin establecido.\n<p>Añade Herbalism Lore, Midwifery Lore, Milling Lore, Tanning Lore, y Lore of a type of food, drink, or product the village was known for producing (such as Alcohol Lore or Wagon Lore) a tu background options</p>"
        },
        "Patron of the Arts": {
            "name": "Patrón de las Artes (Patron of the Arts)",
            "description": "<p>Este personaje te animó a destacar en un tipo de Interpretación que te gustaba, llegando incluso a apoyarte en épocas de vacas flacas.</p> <p>Este personaje te animó a destacar en un tipo de Interpretación que te gustaba, llegando incluso a apoyarte en épocas de vacas flacas.\n<p>Añade la proeza de habilidad @UUID[Compendium.pf2e.feats-srd.lFwfUvH2708rl6i3]{Intérprete virtuoso} a tus opciones de bagaje.</p>"
        }
    },
    "mapping": {
        "description": "content"
    }
}