{
    "label": "Macros PF2e",
    "reference": [],
    "entries": {
        "Take a Breather": {
            "name": "Take a Breather (Tómate un respiro)",
            "description": "NO TRADUCIR"
        },
        "Rest for the Night": {
            "name": "Rest for the Night (Descanso para la noche)",
            "description": "NO TRADUCIR"
        },
        "Perception for Selected Tokens": {
            "name": "Perception for Selected Tokens (Percepción para fichas seleccionadas)",
            "description": "NO TRADUCIR"
        },
        "Travel Duration": {
            "name": "Travel Duration (Duración del viaje)",
            "description": "NO TRADUCIR"
        },
        "Stealth for Selected Tokens": {
            "name": "Stealth for Selected Tokens",
            "description": "NO TRADUCIR"
        },
        "XP": {
            "name": "XP",
            "description": "NO TRADUCIR"
        },
        "Treat Wounds": {
            "name": "Treat Wounds (Tratar heridas)",
            "description": "NO TRADUCIR"
        },
        "Earn Income": {
            "name": "Earn Income (Obtener ingresos)",
            "description": "NO TRADUCIR"
        },
        "Toggle Compendium Browser": {
            "name": "Toggle Compendium Browser",
            "description": "NO TRADUCIR"
        }
    },
    "mapping": {}
}